127.0.0.1 - - [03/Dec/2012:14:52:58 -0800] "GET / HTTP/1.1" 404 951
127.0.0.1 - - [03/Dec/2012:14:53:01 -0800] "GET /brs/WEB-INF/views/home.jsp HTTP/1.1" 404 949
127.0.0.1 - - [03/Dec/2012:14:53:02 -0800] "GET /favicon.ico HTTP/1.1" 404 973
127.0.0.1 - - [03/Dec/2012:14:53:38 -0800] "GET /brs/WEB-INF/views/init.jsp HTTP/1.1" 404 949
127.0.0.1 - - [03/Dec/2012:14:55:39 -0800] "GET /brs/WEB-INF/views/payment.jsp HTTP/1.1" 404 949
