C-0{n=4 c=[1.500, 1.500] r=[0.500, 0.500]}
C-1{n=4 c=[4.000, 4.000] r=[0.707, 0.707]}
C-2{n=3 c=[4.667, 4.667] r=[0.471, 0.471]}
C-0{n=5 c=[1.800, 1.800] r=[0.748, 0.748]}
C-1{n=5 c=[4.200, 4.200] r=[0.748, 0.748]}
C-2{n=3 c=[4.667, 4.667] r=[0.471, 0.471]}
Dec 5, 2012 10:05:12 PM org.slf4j.impl.JCLLoggerAdapter info
INFO: Build Clusters Input: file:/tmp/mahout-TestCanopyCreation-898016682507230208/testdata Out: file:/tmp/mahout-TestCanopyCreation-898016682507230208/output Measure: org.apache.mahout.common.distance.ManhattanDistanceMeasure@1ea817f t1: 3.1 t2: 2.1
Dec 5, 2012 10:05:12 PM org.apache.hadoop.mapred.JobClient copyAndConfigureFiles
WARNING: Use GenericOptionsParser for parsing the arguments. Applications should implement Tool for the same.
Dec 5, 2012 10:05:12 PM org.apache.hadoop.mapred.JobClient copyAndConfigureFiles
WARNING: No job jar file set.  User classes may not be found. See JobConf(Class) or JobConf#setJar(String).
Dec 5, 2012 10:05:12 PM org.apache.hadoop.mapreduce.lib.input.FileInputFormat listStatus
INFO: Total input paths to process : 2
Dec 5, 2012 10:05:12 PM org.apache.hadoop.mapred.JobClient monitorAndPrintJob
INFO: Running job: job_local_0072
Dec 5, 2012 10:05:12 PM org.apache.hadoop.mapred.MapTask$MapOutputBuffer <init>
INFO: io.sort.mb = 100
Dec 5, 2012 10:05:13 PM org.apache.hadoop.mapred.MapTask$MapOutputBuffer <init>
INFO: data buffer = 79691776/99614720
Dec 5, 2012 10:05:13 PM org.apache.hadoop.mapred.MapTask$MapOutputBuffer <init>
INFO: record buffer = 262144/327680
Dec 5, 2012 10:05:13 PM org.apache.hadoop.mapred.MapTask$MapOutputBuffer flush
INFO: Starting flush of map output
Dec 5, 2012 10:05:13 PM org.apache.hadoop.mapred.MapTask$MapOutputBuffer sortAndSpill
INFO: Finished spill 0
Dec 5, 2012 10:05:13 PM org.apache.hadoop.mapred.Task done
INFO: Task:attempt_local_0072_m_000000_0 is done. And is in the process of commiting
Dec 5, 2012 10:05:13 PM org.apache.hadoop.mapred.JobClient monitorAndPrintJob
INFO:  map 0% reduce 0%
Dec 5, 2012 10:05:16 PM org.apache.hadoop.mapred.LocalJobRunner$Job statusUpdate
INFO: 
Dec 5, 2012 10:05:16 PM org.apache.hadoop.mapred.Task sendDone
INFO: Task 'attempt_local_0072_m_000000_0' done.
Dec 5, 2012 10:05:16 PM org.apache.hadoop.mapred.MapTask$MapOutputBuffer <init>
INFO: io.sort.mb = 100
Dec 5, 2012 10:05:16 PM org.apache.hadoop.mapred.JobClient monitorAndPrintJob
INFO:  map 100% reduce 0%
Dec 5, 2012 10:05:16 PM org.apache.hadoop.mapred.MapTask$MapOutputBuffer <init>
INFO: data buffer = 79691776/99614720
Dec 5, 2012 10:05:16 PM org.apache.hadoop.mapred.MapTask$MapOutputBuffer <init>
INFO: record buffer = 262144/327680
Dec 5, 2012 10:05:16 PM org.apache.hadoop.mapred.MapTask$MapOutputBuffer flush
INFO: Starting flush of map output
Dec 5, 2012 10:05:16 PM org.apache.hadoop.mapred.MapTask$MapOutputBuffer sortAndSpill
INFO: Finished spill 0
Dec 5, 2012 10:05:16 PM org.apache.hadoop.mapred.Task done
INFO: Task:attempt_local_0072_m_000001_0 is done. And is in the process of commiting
Dec 5, 2012 10:05:19 PM org.apache.hadoop.mapred.LocalJobRunner$Job statusUpdate
INFO: 
Dec 5, 2012 10:05:19 PM org.apache.hadoop.mapred.Task sendDone
INFO: Task 'attempt_local_0072_m_000001_0' done.
Dec 5, 2012 10:05:19 PM org.apache.hadoop.mapred.LocalJobRunner$Job statusUpdate
INFO: 
Dec 5, 2012 10:05:19 PM org.apache.hadoop.mapred.Merger$MergeQueue merge
INFO: Merging 2 sorted segments
Dec 5, 2012 10:05:19 PM org.apache.hadoop.mapred.Merger$MergeQueue merge
INFO: Down to the last merge-pass, with 2 segments left of total size: 196 bytes
Dec 5, 2012 10:05:19 PM org.apache.hadoop.mapred.LocalJobRunner$Job statusUpdate
INFO: 
Dec 5, 2012 10:05:19 PM org.apache.hadoop.mapred.Task done
INFO: Task:attempt_local_0072_r_000000_0 is done. And is in the process of commiting
Dec 5, 2012 10:05:19 PM org.apache.hadoop.mapred.LocalJobRunner$Job statusUpdate
INFO: 
Dec 5, 2012 10:05:19 PM org.apache.hadoop.mapred.Task commit
INFO: Task attempt_local_0072_r_000000_0 is allowed to commit now
Dec 5, 2012 10:05:19 PM org.apache.hadoop.mapreduce.lib.output.FileOutputCommitter commitTask
INFO: Saved output of task 'attempt_local_0072_r_000000_0' to file:/tmp/mahout-TestCanopyCreation-898016682507230208/output/clusters-0-final
Dec 5, 2012 10:05:22 PM org.apache.hadoop.mapred.LocalJobRunner$Job statusUpdate
INFO: reduce > reduce
Dec 5, 2012 10:05:22 PM org.apache.hadoop.mapred.Task sendDone
INFO: Task 'attempt_local_0072_r_000000_0' done.
Dec 5, 2012 10:05:22 PM org.apache.hadoop.mapred.JobClient monitorAndPrintJob
INFO:  map 100% reduce 100%
Dec 5, 2012 10:05:22 PM org.apache.hadoop.mapred.JobClient monitorAndPrintJob
INFO: Job complete: job_local_0072
Dec 5, 2012 10:05:22 PM org.apache.hadoop.mapred.Counters log
INFO: Counters: 16
Dec 5, 2012 10:05:22 PM org.apache.hadoop.mapred.Counters log
INFO:   File Output Format Counters 
Dec 5, 2012 10:05:22 PM org.apache.hadoop.mapred.Counters log
INFO:     Bytes Written=484
Dec 5, 2012 10:05:22 PM org.apache.hadoop.mapred.Counters log
INFO:   FileSystemCounters
Dec 5, 2012 10:05:22 PM org.apache.hadoop.mapred.Counters log
INFO:     FILE_BYTES_READ=6044024
Dec 5, 2012 10:05:22 PM org.apache.hadoop.mapred.Counters log
INFO:     FILE_BYTES_WRITTEN=10074557
Dec 5, 2012 10:05:22 PM org.apache.hadoop.mapred.Counters log
INFO:   File Input Format Counters 
Dec 5, 2012 10:05:22 PM org.apache.hadoop.mapred.Counters log
INFO:     Bytes Read=886
Dec 5, 2012 10:05:22 PM org.apache.hadoop.mapred.Counters log
INFO:   Map-Reduce Framework
Dec 5, 2012 10:05:22 PM org.apache.hadoop.mapred.Counters log
INFO:     Reduce input groups=1
Dec 5, 2012 10:05:22 PM org.apache.hadoop.mapred.Counters log
INFO:     Map output materialized bytes=204
Dec 5, 2012 10:05:22 PM org.apache.hadoop.mapred.Counters log
INFO:     Combine output records=0
Dec 5, 2012 10:05:22 PM org.apache.hadoop.mapred.Counters log
INFO:     Map input records=18
Dec 5, 2012 10:05:22 PM org.apache.hadoop.mapred.Counters log
INFO:     Reduce shuffle bytes=0
Dec 5, 2012 10:05:22 PM org.apache.hadoop.mapred.Counters log
INFO:     Reduce output records=2
Dec 5, 2012 10:05:22 PM org.apache.hadoop.mapred.Counters log
INFO:     Spilled Records=12
Dec 5, 2012 10:05:22 PM org.apache.hadoop.mapred.Counters log
INFO:     Map output bytes=180
Dec 5, 2012 10:05:22 PM org.apache.hadoop.mapred.Counters log
INFO:     Combine input records=0
Dec 5, 2012 10:05:22 PM org.apache.hadoop.mapred.Counters log
INFO:     Map output records=6
Dec 5, 2012 10:05:22 PM org.apache.hadoop.mapred.Counters log
INFO:     SPLIT_RAW_BYTES=268
Dec 5, 2012 10:05:22 PM org.apache.hadoop.mapred.Counters log
INFO:     Reduce input records=6
Dec 5, 2012 10:05:22 PM org.slf4j.impl.JCLLoggerAdapter info
INFO: Build Clusters Input: file:/tmp/mahout-TestCanopyCreation-7105410324635656192/testdata Out: file:/tmp/mahout-TestCanopyCreation-7105410324635656192/output Measure: org.apache.mahout.common.distance.EuclideanDistanceMeasure@fb0b0 t1: 3.1 t2: 2.1
Dec 5, 2012 10:05:22 PM org.apache.hadoop.mapred.JobClient copyAndConfigureFiles
WARNING: Use GenericOptionsParser for parsing the arguments. Applications should implement Tool for the same.
Dec 5, 2012 10:05:22 PM org.apache.hadoop.mapred.JobClient copyAndConfigureFiles
WARNING: No job jar file set.  User classes may not be found. See JobConf(Class) or JobConf#setJar(String).
Dec 5, 2012 10:05:22 PM org.apache.hadoop.mapreduce.lib.input.FileInputFormat listStatus
INFO: Total input paths to process : 2
Dec 5, 2012 10:05:23 PM org.apache.hadoop.mapred.JobClient monitorAndPrintJob
INFO: Running job: job_local_0073
Dec 5, 2012 10:05:23 PM org.apache.hadoop.mapred.MapTask$MapOutputBuffer <init>
INFO: io.sort.mb = 100
Dec 5, 2012 10:05:23 PM org.apache.hadoop.mapred.MapTask$MapOutputBuffer <init>
INFO: data buffer = 79691776/99614720
Dec 5, 2012 10:05:23 PM org.apache.hadoop.mapred.MapTask$MapOutputBuffer <init>
INFO: record buffer = 262144/327680
Dec 5, 2012 10:05:23 PM org.apache.hadoop.mapred.MapTask$MapOutputBuffer flush
INFO: Starting flush of map output
Dec 5, 2012 10:05:23 PM org.apache.hadoop.mapred.MapTask$MapOutputBuffer sortAndSpill
INFO: Finished spill 0
Dec 5, 2012 10:05:23 PM org.apache.hadoop.mapred.Task done
INFO: Task:attempt_local_0073_m_000000_0 is done. And is in the process of commiting
Dec 5, 2012 10:05:24 PM org.apache.hadoop.mapred.JobClient monitorAndPrintJob
INFO:  map 0% reduce 0%
Dec 5, 2012 10:05:26 PM org.apache.hadoop.mapred.LocalJobRunner$Job statusUpdate
INFO: 
Dec 5, 2012 10:05:26 PM org.apache.hadoop.mapred.Task sendDone
INFO: Task 'attempt_local_0073_m_000000_0' done.
Dec 5, 2012 10:05:26 PM org.apache.hadoop.mapred.MapTask$MapOutputBuffer <init>
INFO: io.sort.mb = 100
Dec 5, 2012 10:05:26 PM org.apache.hadoop.mapred.MapTask$MapOutputBuffer <init>
INFO: data buffer = 79691776/99614720
Dec 5, 2012 10:05:26 PM org.apache.hadoop.mapred.MapTask$MapOutputBuffer <init>
INFO: record buffer = 262144/327680
Dec 5, 2012 10:05:26 PM org.apache.hadoop.mapred.MapTask$MapOutputBuffer flush
INFO: Starting flush of map output
Dec 5, 2012 10:05:26 PM org.apache.hadoop.mapred.MapTask$MapOutputBuffer sortAndSpill
INFO: Finished spill 0
Dec 5, 2012 10:05:26 PM org.apache.hadoop.mapred.Task done
INFO: Task:attempt_local_0073_m_000001_0 is done. And is in the process of commiting
Dec 5, 2012 10:05:27 PM org.apache.hadoop.mapred.JobClient monitorAndPrintJob
INFO:  map 100% reduce 0%
Dec 5, 2012 10:05:29 PM org.apache.hadoop.mapred.LocalJobRunner$Job statusUpdate
INFO: 
Dec 5, 2012 10:05:29 PM org.apache.hadoop.mapred.Task sendDone
INFO: Task 'attempt_local_0073_m_000001_0' done.
Dec 5, 2012 10:05:29 PM org.apache.hadoop.mapred.LocalJobRunner$Job statusUpdate
INFO: 
Dec 5, 2012 10:05:29 PM org.apache.hadoop.mapred.Merger$MergeQueue merge
INFO: Merging 2 sorted segments
Dec 5, 2012 10:05:29 PM org.apache.hadoop.mapred.Merger$MergeQueue merge
INFO: Down to the last merge-pass, with 2 segments left of total size: 196 bytes
Dec 5, 2012 10:05:29 PM org.apache.hadoop.mapred.LocalJobRunner$Job statusUpdate
INFO: 
Dec 5, 2012 10:05:29 PM org.apache.hadoop.mapred.Task done
INFO: Task:attempt_local_0073_r_000000_0 is done. And is in the process of commiting
Dec 5, 2012 10:05:29 PM org.apache.hadoop.mapred.LocalJobRunner$Job statusUpdate
INFO: 
Dec 5, 2012 10:05:29 PM org.apache.hadoop.mapred.Task commit
INFO: Task attempt_local_0073_r_000000_0 is allowed to commit now
Dec 5, 2012 10:05:29 PM org.apache.hadoop.mapreduce.lib.output.FileOutputCommitter commitTask
INFO: Saved output of task 'attempt_local_0073_r_000000_0' to file:/tmp/mahout-TestCanopyCreation-7105410324635656192/output/clusters-0-final
Dec 5, 2012 10:05:32 PM org.apache.hadoop.mapred.LocalJobRunner$Job statusUpdate
INFO: reduce > reduce
Dec 5, 2012 10:05:32 PM org.apache.hadoop.mapred.Task sendDone
INFO: Task 'attempt_local_0073_r_000000_0' done.
Dec 5, 2012 10:05:33 PM org.apache.hadoop.mapred.JobClient monitorAndPrintJob
INFO:  map 100% reduce 100%
Dec 5, 2012 10:05:33 PM org.apache.hadoop.mapred.JobClient monitorAndPrintJob
INFO: Job complete: job_local_0073
Dec 5, 2012 10:05:33 PM org.apache.hadoop.mapred.Counters log
INFO: Counters: 16
Dec 5, 2012 10:05:33 PM org.apache.hadoop.mapred.Counters log
INFO:   File Output Format Counters 
Dec 5, 2012 10:05:33 PM org.apache.hadoop.mapred.Counters log
INFO:     Bytes Written=484
Dec 5, 2012 10:05:33 PM org.apache.hadoop.mapred.Counters log
INFO:   FileSystemCounters
Dec 5, 2012 10:05:33 PM org.apache.hadoop.mapred.Counters log
INFO:     FILE_BYTES_READ=6050637
Dec 5, 2012 10:05:33 PM org.apache.hadoop.mapred.Counters log
INFO:     FILE_BYTES_WRITTEN=10180400
Dec 5, 2012 10:05:33 PM org.apache.hadoop.mapred.Counters log
INFO:   File Input Format Counters 
Dec 5, 2012 10:05:33 PM org.apache.hadoop.mapred.Counters log
INFO:     Bytes Read=886
Dec 5, 2012 10:05:33 PM org.apache.hadoop.mapred.Counters log
INFO:   Map-Reduce Framework
Dec 5, 2012 10:05:33 PM org.apache.hadoop.mapred.Counters log
INFO:     Reduce input groups=1
Dec 5, 2012 10:05:33 PM org.apache.hadoop.mapred.Counters log
INFO:     Map output materialized bytes=204
Dec 5, 2012 10:05:33 PM org.apache.hadoop.mapred.Counters log
INFO:     Combine output records=0
Dec 5, 2012 10:05:33 PM org.apache.hadoop.mapred.Counters log
INFO:     Map input records=18
Dec 5, 2012 10:05:33 PM org.apache.hadoop.mapred.Counters log
INFO:     Reduce shuffle bytes=0
Dec 5, 2012 10:05:33 PM org.apache.hadoop.mapred.Counters log
INFO:     Reduce output records=2
Dec 5, 2012 10:05:33 PM org.apache.hadoop.mapred.Counters log
INFO:     Spilled Records=12
Dec 5, 2012 10:05:33 PM org.apache.hadoop.mapred.Counters log
INFO:     Map output bytes=180
Dec 5, 2012 10:05:33 PM org.apache.hadoop.mapred.Counters log
INFO:     Combine input records=0
Dec 5, 2012 10:05:33 PM org.apache.hadoop.mapred.Counters log
INFO:     Map output records=6
Dec 5, 2012 10:05:33 PM org.apache.hadoop.mapred.Counters log
INFO:     SPLIT_RAW_BYTES=270
Dec 5, 2012 10:05:33 PM org.apache.hadoop.mapred.Counters log
INFO:     Reduce input records=6
Dec 5, 2012 10:05:33 PM org.slf4j.impl.JCLLoggerAdapter info
INFO: Build Clusters Input: file:/tmp/mahout-TestCanopyCreation-1476325665984218112/testdata Out: file:/tmp/mahout-TestCanopyCreation-1476325665984218112/output Measure: org.apache.mahout.common.distance.ManhattanDistanceMeasure@10c29fe t1: 3.1 t2: 2.1
Dec 5, 2012 10:05:33 PM org.slf4j.impl.JCLLoggerAdapter info
INFO: Command line arguments: {--clustering=null, --distanceMeasure=[org.apache.mahout.common.distance.EuclideanDistanceMeasure], --endPhase=[2147483647], --input=[file:/tmp/mahout-TestCanopyCreation-6487556835077170176/testdata], --method=[sequential], --output=[file:/tmp/mahout-TestCanopyCreation-6487556835077170176/output], --overwrite=null, --startPhase=[0], --t1=[3.1], --t2=[2.1], --tempDir=[temp]}
Dec 5, 2012 10:05:33 PM org.slf4j.impl.JCLLoggerAdapter info
INFO: Deleting file:/tmp/mahout-TestCanopyCreation-6487556835077170176/output
Dec 5, 2012 10:05:33 PM org.slf4j.impl.JCLLoggerAdapter info
INFO: Build Clusters Input: file:/tmp/mahout-TestCanopyCreation-6487556835077170176/testdata Out: file:/tmp/mahout-TestCanopyCreation-6487556835077170176/output Measure: org.apache.mahout.common.distance.EuclideanDistanceMeasure@1d433c1 t1: 3.1 t2: 2.1
Dec 5, 2012 10:05:34 PM org.slf4j.impl.JCLLoggerAdapter info
INFO: Command line arguments: {--clustering=null, --distanceMeasure=[org.apache.mahout.common.distance.EuclideanDistanceMeasure], --endPhase=[2147483647], --input=[file:/tmp/mahout-TestCanopyCreation-7136539167432456192/testdata], --method=[sequential], --outlierThreshold=[0.5], --output=[file:/tmp/mahout-TestCanopyCreation-7136539167432456192/output], --overwrite=null, --startPhase=[0], --t1=[3.1], --t2=[2.1], --tempDir=[temp]}
Dec 5, 2012 10:05:34 PM org.slf4j.impl.JCLLoggerAdapter info
INFO: Deleting file:/tmp/mahout-TestCanopyCreation-7136539167432456192/output
Dec 5, 2012 10:05:34 PM org.slf4j.impl.JCLLoggerAdapter info
INFO: Build Clusters Input: file:/tmp/mahout-TestCanopyCreation-7136539167432456192/testdata Out: file:/tmp/mahout-TestCanopyCreation-7136539167432456192/output Measure: org.apache.mahout.common.distance.EuclideanDistanceMeasure@15023d2 t1: 3.1 t2: 2.1
Dec 5, 2012 10:05:35 PM org.slf4j.impl.JCLLoggerAdapter info
INFO: Build Clusters Input: file:/tmp/mahout-TestCanopyCreation-4122158929094896640/testdata Out: file:/tmp/mahout-TestCanopyCreation-4122158929094896640/output Measure: org.apache.mahout.common.distance.ManhattanDistanceMeasure@1d6bff7 t1: 3.1 t2: 2.1
Dec 5, 2012 10:05:35 PM org.apache.hadoop.mapred.JobClient copyAndConfigureFiles
WARNING: Use GenericOptionsParser for parsing the arguments. Applications should implement Tool for the same.
Dec 5, 2012 10:05:35 PM org.apache.hadoop.mapred.JobClient copyAndConfigureFiles
WARNING: No job jar file set.  User classes may not be found. See JobConf(Class) or JobConf#setJar(String).
Dec 5, 2012 10:05:35 PM org.apache.hadoop.mapreduce.lib.input.FileInputFormat listStatus
INFO: Total input paths to process : 2
Dec 5, 2012 10:05:35 PM org.apache.hadoop.mapred.JobClient monitorAndPrintJob
INFO: Running job: job_local_0074
Dec 5, 2012 10:05:35 PM org.apache.hadoop.mapred.MapTask$MapOutputBuffer <init>
INFO: io.sort.mb = 100
Dec 5, 2012 10:05:36 PM org.apache.hadoop.mapred.MapTask$MapOutputBuffer <init>
INFO: data buffer = 79691776/99614720
Dec 5, 2012 10:05:36 PM org.apache.hadoop.mapred.MapTask$MapOutputBuffer <init>
INFO: record buffer = 262144/327680
Dec 5, 2012 10:05:36 PM org.apache.hadoop.mapred.MapTask$MapOutputBuffer flush
INFO: Starting flush of map output
Dec 5, 2012 10:05:36 PM org.apache.hadoop.mapred.MapTask$MapOutputBuffer sortAndSpill
INFO: Finished spill 0
Dec 5, 2012 10:05:36 PM org.apache.hadoop.mapred.Task done
INFO: Task:attempt_local_0074_m_000000_0 is done. And is in the process of commiting
Dec 5, 2012 10:05:36 PM org.apache.hadoop.mapred.JobClient monitorAndPrintJob
INFO:  map 0% reduce 0%
Dec 5, 2012 10:05:38 PM org.apache.hadoop.mapred.LocalJobRunner$Job statusUpdate
INFO: 
Dec 5, 2012 10:05:38 PM org.apache.hadoop.mapred.Task sendDone
INFO: Task 'attempt_local_0074_m_000000_0' done.
Dec 5, 2012 10:05:38 PM org.apache.hadoop.mapred.MapTask$MapOutputBuffer <init>
INFO: io.sort.mb = 100
Dec 5, 2012 10:05:39 PM org.apache.hadoop.mapred.MapTask$MapOutputBuffer <init>
INFO: data buffer = 79691776/99614720
Dec 5, 2012 10:05:39 PM org.apache.hadoop.mapred.MapTask$MapOutputBuffer <init>
INFO: record buffer = 262144/327680
Dec 5, 2012 10:05:39 PM org.apache.hadoop.mapred.MapTask$MapOutputBuffer flush
INFO: Starting flush of map output
Dec 5, 2012 10:05:39 PM org.apache.hadoop.mapred.MapTask$MapOutputBuffer sortAndSpill
INFO: Finished spill 0
Dec 5, 2012 10:05:39 PM org.apache.hadoop.mapred.Task done
INFO: Task:attempt_local_0074_m_000001_0 is done. And is in the process of commiting
Dec 5, 2012 10:05:39 PM org.apache.hadoop.mapred.JobClient monitorAndPrintJob
INFO:  map 100% reduce 0%
Dec 5, 2012 10:05:41 PM org.apache.hadoop.mapred.LocalJobRunner$Job statusUpdate
INFO: 
Dec 5, 2012 10:05:41 PM org.apache.hadoop.mapred.Task sendDone
INFO: Task 'attempt_local_0074_m_000001_0' done.
Dec 5, 2012 10:05:41 PM org.apache.hadoop.mapred.LocalJobRunner$Job statusUpdate
INFO: 
Dec 5, 2012 10:05:41 PM org.apache.hadoop.mapred.Merger$MergeQueue merge
INFO: Merging 2 sorted segments
Dec 5, 2012 10:05:41 PM org.apache.hadoop.mapred.Merger$MergeQueue merge
INFO: Down to the last merge-pass, with 2 segments left of total size: 196 bytes
Dec 5, 2012 10:05:41 PM org.apache.hadoop.mapred.LocalJobRunner$Job statusUpdate
INFO: 
Dec 5, 2012 10:05:41 PM org.apache.hadoop.mapred.Task done
INFO: Task:attempt_local_0074_r_000000_0 is done. And is in the process of commiting
Dec 5, 2012 10:05:41 PM org.apache.hadoop.mapred.LocalJobRunner$Job statusUpdate
INFO: 
Dec 5, 2012 10:05:41 PM org.apache.hadoop.mapred.Task commit
INFO: Task attempt_local_0074_r_000000_0 is allowed to commit now
Dec 5, 2012 10:05:41 PM org.apache.hadoop.mapreduce.lib.output.FileOutputCommitter commitTask
INFO: Saved output of task 'attempt_local_0074_r_000000_0' to file:/tmp/mahout-TestCanopyCreation-4122158929094896640/output/clusters-0-final
Dec 5, 2012 10:05:45 PM org.apache.hadoop.mapred.LocalJobRunner$Job statusUpdate
INFO: reduce > reduce
Dec 5, 2012 10:05:45 PM org.apache.hadoop.mapred.Task sendDone
INFO: Task 'attempt_local_0074_r_000000_0' done.
Dec 5, 2012 10:05:45 PM org.apache.hadoop.mapred.JobClient monitorAndPrintJob
INFO:  map 100% reduce 100%
Dec 5, 2012 10:05:45 PM org.apache.hadoop.mapred.JobClient monitorAndPrintJob
INFO: Job complete: job_local_0074
Dec 5, 2012 10:05:45 PM org.apache.hadoop.mapred.Counters log
INFO: Counters: 16
Dec 5, 2012 10:05:45 PM org.apache.hadoop.mapred.Counters log
INFO:   File Output Format Counters 
Dec 5, 2012 10:05:45 PM org.apache.hadoop.mapred.Counters log
INFO:     Bytes Written=484
Dec 5, 2012 10:05:45 PM org.apache.hadoop.mapred.Counters log
INFO:   FileSystemCounters
Dec 5, 2012 10:05:45 PM org.apache.hadoop.mapred.Counters log
INFO:     FILE_BYTES_READ=6083671
Dec 5, 2012 10:05:45 PM org.apache.hadoop.mapred.Counters log
INFO:     FILE_BYTES_WRITTEN=10302356
Dec 5, 2012 10:05:45 PM org.apache.hadoop.mapred.Counters log
INFO:   File Input Format Counters 
Dec 5, 2012 10:05:45 PM org.apache.hadoop.mapred.Counters log
INFO:     Bytes Read=812
Dec 5, 2012 10:05:45 PM org.apache.hadoop.mapred.Counters log
INFO:   Map-Reduce Framework
Dec 5, 2012 10:05:45 PM org.apache.hadoop.mapred.Counters log
INFO:     Reduce input groups=1
Dec 5, 2012 10:05:45 PM org.apache.hadoop.mapred.Counters log
INFO:     Map output materialized bytes=204
Dec 5, 2012 10:05:45 PM org.apache.hadoop.mapred.Counters log
INFO:     Combine output records=0
Dec 5, 2012 10:05:45 PM org.apache.hadoop.mapred.Counters log
INFO:     Map input records=18
Dec 5, 2012 10:05:45 PM org.apache.hadoop.mapred.Counters log
INFO:     Reduce shuffle bytes=0
Dec 5, 2012 10:05:45 PM org.apache.hadoop.mapred.Counters log
INFO:     Reduce output records=2
Dec 5, 2012 10:05:45 PM org.apache.hadoop.mapred.Counters log
INFO:     Spilled Records=12
Dec 5, 2012 10:05:45 PM org.apache.hadoop.mapred.Counters log
INFO:     Map output bytes=180
Dec 5, 2012 10:05:45 PM org.apache.hadoop.mapred.Counters log
INFO:     Combine input records=0
Dec 5, 2012 10:05:45 PM org.apache.hadoop.mapred.Counters log
INFO:     Map output records=6
Dec 5, 2012 10:05:45 PM org.apache.hadoop.mapred.Counters log
INFO:     SPLIT_RAW_BYTES=270
Dec 5, 2012 10:05:45 PM org.apache.hadoop.mapred.Counters log
INFO:     Reduce input records=6
Dec 5, 2012 10:05:45 PM org.apache.hadoop.mapred.JobClient copyAndConfigureFiles
WARNING: Use GenericOptionsParser for parsing the arguments. Applications should implement Tool for the same.
Dec 5, 2012 10:05:45 PM org.apache.hadoop.mapred.JobClient copyAndConfigureFiles
WARNING: No job jar file set.  User classes may not be found. See JobConf(Class) or JobConf#setJar(String).
Dec 5, 2012 10:05:45 PM org.apache.hadoop.mapreduce.lib.input.FileInputFormat listStatus
INFO: Total input paths to process : 2
Dec 5, 2012 10:05:45 PM org.apache.hadoop.mapred.JobClient monitorAndPrintJob
INFO: Running job: job_local_0075
Dec 5, 2012 10:05:45 PM org.apache.hadoop.mapred.Task done
INFO: Task:attempt_local_0075_m_000000_0 is done. And is in the process of commiting
Dec 5, 2012 10:05:45 PM org.apache.hadoop.mapred.LocalJobRunner$Job statusUpdate
INFO: 
Dec 5, 2012 10:05:45 PM org.apache.hadoop.mapred.Task commit
INFO: Task attempt_local_0075_m_000000_0 is allowed to commit now
Dec 5, 2012 10:05:45 PM org.apache.hadoop.mapreduce.lib.output.FileOutputCommitter commitTask
INFO: Saved output of task 'attempt_local_0075_m_000000_0' to file:/tmp/mahout-TestCanopyCreation-4122158929094896640/output/clusteredPoints
Dec 5, 2012 10:05:46 PM org.apache.hadoop.mapred.JobClient monitorAndPrintJob
INFO:  map 0% reduce 0%
Dec 5, 2012 10:05:49 PM org.apache.hadoop.mapred.LocalJobRunner$Job statusUpdate
INFO: 
Dec 5, 2012 10:05:49 PM org.apache.hadoop.mapred.Task sendDone
INFO: Task 'attempt_local_0075_m_000000_0' done.
Dec 5, 2012 10:05:49 PM org.apache.hadoop.mapred.Task done
INFO: Task:attempt_local_0075_m_000001_0 is done. And is in the process of commiting
Dec 5, 2012 10:05:49 PM org.apache.hadoop.mapred.LocalJobRunner$Job statusUpdate
INFO: 
Dec 5, 2012 10:05:49 PM org.apache.hadoop.mapred.Task commit
INFO: Task attempt_local_0075_m_000001_0 is allowed to commit now
Dec 5, 2012 10:05:49 PM org.apache.hadoop.mapreduce.lib.output.FileOutputCommitter commitTask
INFO: Saved output of task 'attempt_local_0075_m_000001_0' to file:/tmp/mahout-TestCanopyCreation-4122158929094896640/output/clusteredPoints
Dec 5, 2012 10:05:50 PM org.apache.hadoop.mapred.JobClient monitorAndPrintJob
INFO:  map 50% reduce 0%
Dec 5, 2012 10:05:52 PM org.apache.hadoop.mapred.LocalJobRunner$Job statusUpdate
INFO: 
Dec 5, 2012 10:05:52 PM org.apache.hadoop.mapred.Task sendDone
INFO: Task 'attempt_local_0075_m_000001_0' done.
Dec 5, 2012 10:05:54 PM org.apache.hadoop.mapred.JobClient monitorAndPrintJob
INFO:  map 100% reduce 0%
Dec 5, 2012 10:05:54 PM org.apache.hadoop.mapred.JobClient monitorAndPrintJob
INFO: Job complete: job_local_0075
Dec 5, 2012 10:05:54 PM org.apache.hadoop.mapred.Counters log
INFO: Counters: 8
Dec 5, 2012 10:05:54 PM org.apache.hadoop.mapred.Counters log
INFO:   File Output Format Counters 
Dec 5, 2012 10:05:54 PM org.apache.hadoop.mapred.Counters log
INFO:     Bytes Written=1002
Dec 5, 2012 10:05:54 PM org.apache.hadoop.mapred.Counters log
INFO:   FileSystemCounters
Dec 5, 2012 10:05:54 PM org.apache.hadoop.mapred.Counters log
INFO:     FILE_BYTES_READ=4060801
Dec 5, 2012 10:05:54 PM org.apache.hadoop.mapred.Counters log
INFO:     FILE_BYTES_WRITTEN=6935217
Dec 5, 2012 10:05:54 PM org.apache.hadoop.mapred.Counters log
INFO:   File Input Format Counters 
Dec 5, 2012 10:05:54 PM org.apache.hadoop.mapred.Counters log
INFO:     Bytes Read=812
Dec 5, 2012 10:05:54 PM org.apache.hadoop.mapred.Counters log
INFO:   Map-Reduce Framework
Dec 5, 2012 10:05:54 PM org.apache.hadoop.mapred.Counters log
INFO:     Map input records=18
Dec 5, 2012 10:05:54 PM org.apache.hadoop.mapred.Counters log
INFO:     Spilled Records=0
Dec 5, 2012 10:05:54 PM org.apache.hadoop.mapred.Counters log
INFO:     Map output records=18
Dec 5, 2012 10:05:54 PM org.apache.hadoop.mapred.Counters log
INFO:     SPLIT_RAW_BYTES=270
Dec 5, 2012 10:05:54 PM org.slf4j.impl.JCLLoggerAdapter info
INFO: Command line arguments: {--clustering=null, --distanceMeasure=[org.apache.mahout.common.distance.EuclideanDistanceMeasure], --endPhase=[2147483647], --input=[file:/tmp/mahout-TestCanopyCreation-8863892143089216512/testdata], --method=[mapreduce], --output=[file:/tmp/mahout-TestCanopyCreation-8863892143089216512/output], --overwrite=null, --startPhase=[0], --t1=[3.1], --t2=[2.1], --tempDir=[temp]}
Dec 5, 2012 10:05:54 PM org.slf4j.impl.JCLLoggerAdapter info
INFO: Deleting file:/tmp/mahout-TestCanopyCreation-8863892143089216512/output
Dec 5, 2012 10:05:54 PM org.slf4j.impl.JCLLoggerAdapter info
INFO: Build Clusters Input: file:/tmp/mahout-TestCanopyCreation-8863892143089216512/testdata Out: file:/tmp/mahout-TestCanopyCreation-8863892143089216512/output Measure: org.apache.mahout.common.distance.EuclideanDistanceMeasure@bb3f71 t1: 3.1 t2: 2.1
Dec 5, 2012 10:05:54 PM org.apache.hadoop.mapred.JobClient copyAndConfigureFiles
WARNING: No job jar file set.  User classes may not be found. See JobConf(Class) or JobConf#setJar(String).
Dec 5, 2012 10:05:54 PM org.apache.hadoop.mapreduce.lib.input.FileInputFormat listStatus
INFO: Total input paths to process : 2
Dec 5, 2012 10:05:54 PM org.apache.hadoop.mapred.JobClient monitorAndPrintJob
INFO: Running job: job_local_0076
Dec 5, 2012 10:05:54 PM org.apache.hadoop.mapred.MapTask$MapOutputBuffer <init>
INFO: io.sort.mb = 100
Dec 5, 2012 10:05:55 PM org.apache.hadoop.mapred.MapTask$MapOutputBuffer <init>
INFO: data buffer = 79691776/99614720
Dec 5, 2012 10:05:55 PM org.apache.hadoop.mapred.MapTask$MapOutputBuffer <init>
INFO: record buffer = 262144/327680
Dec 5, 2012 10:05:55 PM org.apache.hadoop.mapred.MapTask$MapOutputBuffer flush
INFO: Starting flush of map output
Dec 5, 2012 10:05:55 PM org.apache.hadoop.mapred.MapTask$MapOutputBuffer sortAndSpill
INFO: Finished spill 0
Dec 5, 2012 10:05:55 PM org.apache.hadoop.mapred.Task done
INFO: Task:attempt_local_0076_m_000000_0 is done. And is in the process of commiting
Dec 5, 2012 10:05:55 PM org.apache.hadoop.mapred.JobClient monitorAndPrintJob
INFO:  map 0% reduce 0%
Dec 5, 2012 10:05:57 PM org.apache.hadoop.mapred.LocalJobRunner$Job statusUpdate
INFO: 
Dec 5, 2012 10:05:57 PM org.apache.hadoop.mapred.Task sendDone
INFO: Task 'attempt_local_0076_m_000000_0' done.
Dec 5, 2012 10:05:57 PM org.apache.hadoop.mapred.JobClient monitorAndPrintJob
INFO:  map 100% reduce 0%
Dec 5, 2012 10:05:57 PM org.apache.hadoop.mapred.MapTask$MapOutputBuffer <init>
INFO: io.sort.mb = 100
Dec 5, 2012 10:05:57 PM org.apache.hadoop.mapred.MapTask$MapOutputBuffer <init>
INFO: data buffer = 79691776/99614720
Dec 5, 2012 10:05:57 PM org.apache.hadoop.mapred.MapTask$MapOutputBuffer <init>
INFO: record buffer = 262144/327680
Dec 5, 2012 10:05:57 PM org.apache.hadoop.mapred.MapTask$MapOutputBuffer flush
INFO: Starting flush of map output
Dec 5, 2012 10:05:58 PM org.apache.hadoop.mapred.MapTask$MapOutputBuffer sortAndSpill
INFO: Finished spill 0
Dec 5, 2012 10:05:58 PM org.apache.hadoop.mapred.Task done
INFO: Task:attempt_local_0076_m_000001_0 is done. And is in the process of commiting
Dec 5, 2012 10:06:00 PM org.apache.hadoop.mapred.LocalJobRunner$Job statusUpdate
INFO: 
Dec 5, 2012 10:06:00 PM org.apache.hadoop.mapred.Task sendDone
INFO: Task 'attempt_local_0076_m_000001_0' done.
Dec 5, 2012 10:06:00 PM org.apache.hadoop.mapred.LocalJobRunner$Job statusUpdate
INFO: 
Dec 5, 2012 10:06:00 PM org.apache.hadoop.mapred.Merger$MergeQueue merge
INFO: Merging 2 sorted segments
Dec 5, 2012 10:06:00 PM org.apache.hadoop.mapred.Merger$MergeQueue merge
INFO: Down to the last merge-pass, with 2 segments left of total size: 196 bytes
Dec 5, 2012 10:06:00 PM org.apache.hadoop.mapred.LocalJobRunner$Job statusUpdate
INFO: 
Dec 5, 2012 10:06:00 PM org.apache.hadoop.mapred.Task done
INFO: Task:attempt_local_0076_r_000000_0 is done. And is in the process of commiting
Dec 5, 2012 10:06:00 PM org.apache.hadoop.mapred.LocalJobRunner$Job statusUpdate
INFO: 
Dec 5, 2012 10:06:00 PM org.apache.hadoop.mapred.Task commit
INFO: Task attempt_local_0076_r_000000_0 is allowed to commit now
Dec 5, 2012 10:06:00 PM org.apache.hadoop.mapreduce.lib.output.FileOutputCommitter commitTask
INFO: Saved output of task 'attempt_local_0076_r_000000_0' to file:/tmp/mahout-TestCanopyCreation-8863892143089216512/output/clusters-0-final
Dec 5, 2012 10:06:03 PM org.apache.hadoop.mapred.LocalJobRunner$Job statusUpdate
INFO: reduce > reduce
Dec 5, 2012 10:06:03 PM org.apache.hadoop.mapred.Task sendDone
INFO: Task 'attempt_local_0076_r_000000_0' done.
Dec 5, 2012 10:06:04 PM org.apache.hadoop.mapred.JobClient monitorAndPrintJob
INFO:  map 100% reduce 100%
Dec 5, 2012 10:06:04 PM org.apache.hadoop.mapred.JobClient monitorAndPrintJob
INFO: Job complete: job_local_0076
Dec 5, 2012 10:06:04 PM org.apache.hadoop.mapred.Counters log
INFO: Counters: 16
Dec 5, 2012 10:06:04 PM org.apache.hadoop.mapred.Counters log
INFO:   File Output Format Counters 
Dec 5, 2012 10:06:04 PM org.apache.hadoop.mapred.Counters log
INFO:     Bytes Written=484
Dec 5, 2012 10:06:04 PM org.apache.hadoop.mapred.Counters log
INFO:   FileSystemCounters
Dec 5, 2012 10:06:04 PM org.apache.hadoop.mapred.Counters log
INFO:     FILE_BYTES_READ=6098632
Dec 5, 2012 10:06:04 PM org.apache.hadoop.mapred.Counters log
INFO:     FILE_BYTES_WRITTEN=10508606
Dec 5, 2012 10:06:04 PM org.apache.hadoop.mapred.Counters log
INFO:   File Input Format Counters 
Dec 5, 2012 10:06:04 PM org.apache.hadoop.mapred.Counters log
INFO:     Bytes Read=812
Dec 5, 2012 10:06:04 PM org.apache.hadoop.mapred.Counters log
INFO:   Map-Reduce Framework
Dec 5, 2012 10:06:04 PM org.apache.hadoop.mapred.Counters log
INFO:     Reduce input groups=1
Dec 5, 2012 10:06:04 PM org.apache.hadoop.mapred.Counters log
INFO:     Map output materialized bytes=204
Dec 5, 2012 10:06:04 PM org.apache.hadoop.mapred.Counters log
INFO:     Combine output records=0
Dec 5, 2012 10:06:04 PM org.apache.hadoop.mapred.Counters log
INFO:     Map input records=18
Dec 5, 2012 10:06:04 PM org.apache.hadoop.mapred.Counters log
INFO:     Reduce shuffle bytes=0
Dec 5, 2012 10:06:04 PM org.apache.hadoop.mapred.Counters log
INFO:     Reduce output records=2
Dec 5, 2012 10:06:04 PM org.apache.hadoop.mapred.Counters log
INFO:     Spilled Records=12
Dec 5, 2012 10:06:04 PM org.apache.hadoop.mapred.Counters log
INFO:     Map output bytes=180
Dec 5, 2012 10:06:04 PM org.apache.hadoop.mapred.Counters log
INFO:     Combine input records=0
Dec 5, 2012 10:06:04 PM org.apache.hadoop.mapred.Counters log
INFO:     Map output records=6
Dec 5, 2012 10:06:04 PM org.apache.hadoop.mapred.Counters log
INFO:     SPLIT_RAW_BYTES=270
Dec 5, 2012 10:06:04 PM org.apache.hadoop.mapred.Counters log
INFO:     Reduce input records=6
Dec 5, 2012 10:06:04 PM org.apache.hadoop.mapred.JobClient copyAndConfigureFiles
WARNING: Use GenericOptionsParser for parsing the arguments. Applications should implement Tool for the same.
Dec 5, 2012 10:06:04 PM org.apache.hadoop.mapred.JobClient copyAndConfigureFiles
WARNING: No job jar file set.  User classes may not be found. See JobConf(Class) or JobConf#setJar(String).
Dec 5, 2012 10:06:04 PM org.apache.hadoop.mapreduce.lib.input.FileInputFormat listStatus
INFO: Total input paths to process : 2
Dec 5, 2012 10:06:04 PM org.apache.hadoop.mapred.JobClient monitorAndPrintJob
INFO: Running job: job_local_0077
Dec 5, 2012 10:06:04 PM org.apache.hadoop.mapred.Task done
INFO: Task:attempt_local_0077_m_000000_0 is done. And is in the process of commiting
Dec 5, 2012 10:06:04 PM org.apache.hadoop.mapred.LocalJobRunner$Job statusUpdate
INFO: 
Dec 5, 2012 10:06:04 PM org.apache.hadoop.mapred.Task commit
INFO: Task attempt_local_0077_m_000000_0 is allowed to commit now
Dec 5, 2012 10:06:04 PM org.apache.hadoop.mapreduce.lib.output.FileOutputCommitter commitTask
INFO: Saved output of task 'attempt_local_0077_m_000000_0' to file:/tmp/mahout-TestCanopyCreation-8863892143089216512/output/clusteredPoints
Dec 5, 2012 10:06:05 PM org.apache.hadoop.mapred.JobClient monitorAndPrintJob
INFO:  map 0% reduce 0%
Dec 5, 2012 10:06:09 PM org.apache.hadoop.mapred.LocalJobRunner$Job statusUpdate
INFO: 
Dec 5, 2012 10:06:09 PM org.apache.hadoop.mapred.Task sendDone
INFO: Task 'attempt_local_0077_m_000000_0' done.
Dec 5, 2012 10:06:09 PM org.apache.hadoop.mapred.Task done
INFO: Task:attempt_local_0077_m_000001_0 is done. And is in the process of commiting
Dec 5, 2012 10:06:09 PM org.apache.hadoop.mapred.LocalJobRunner$Job statusUpdate
INFO: 
Dec 5, 2012 10:06:09 PM org.apache.hadoop.mapred.Task commit
INFO: Task attempt_local_0077_m_000001_0 is allowed to commit now
Dec 5, 2012 10:06:09 PM org.apache.hadoop.mapreduce.lib.output.FileOutputCommitter commitTask
INFO: Saved output of task 'attempt_local_0077_m_000001_0' to file:/tmp/mahout-TestCanopyCreation-8863892143089216512/output/clusteredPoints
Dec 5, 2012 10:06:10 PM org.apache.hadoop.mapred.JobClient monitorAndPrintJob
INFO:  map 50% reduce 0%
Dec 5, 2012 10:06:12 PM org.apache.hadoop.mapred.LocalJobRunner$Job statusUpdate
INFO: 
Dec 5, 2012 10:06:12 PM org.apache.hadoop.mapred.Task sendDone
INFO: Task 'attempt_local_0077_m_000001_0' done.
Dec 5, 2012 10:06:13 PM org.apache.hadoop.mapred.JobClient monitorAndPrintJob
INFO:  map 100% reduce 0%
Dec 5, 2012 10:06:13 PM org.apache.hadoop.mapred.JobClient monitorAndPrintJob
INFO: Job complete: job_local_0077
Dec 5, 2012 10:06:13 PM org.apache.hadoop.mapred.Counters log
INFO: Counters: 8
Dec 5, 2012 10:06:13 PM org.apache.hadoop.mapred.Counters log
INFO:   File Output Format Counters 
Dec 5, 2012 10:06:13 PM org.apache.hadoop.mapred.Counters log
INFO:     Bytes Written=1002
Dec 5, 2012 10:06:13 PM org.apache.hadoop.mapred.Counters log
INFO:   FileSystemCounters
Dec 5, 2012 10:06:13 PM org.apache.hadoop.mapred.Counters log
INFO:     FILE_BYTES_READ=4070775
Dec 5, 2012 10:06:13 PM org.apache.hadoop.mapred.Counters log
INFO:     FILE_BYTES_WRITTEN=7072713
Dec 5, 2012 10:06:13 PM org.apache.hadoop.mapred.Counters log
INFO:   File Input Format Counters 
Dec 5, 2012 10:06:13 PM org.apache.hadoop.mapred.Counters log
INFO:     Bytes Read=812
Dec 5, 2012 10:06:13 PM org.apache.hadoop.mapred.Counters log
INFO:   Map-Reduce Framework
Dec 5, 2012 10:06:13 PM org.apache.hadoop.mapred.Counters log
INFO:     Map input records=18
Dec 5, 2012 10:06:13 PM org.apache.hadoop.mapred.Counters log
INFO:     Spilled Records=0
Dec 5, 2012 10:06:13 PM org.apache.hadoop.mapred.Counters log
INFO:     Map output records=18
Dec 5, 2012 10:06:13 PM org.apache.hadoop.mapred.Counters log
INFO:     SPLIT_RAW_BYTES=270
Dec 5, 2012 10:06:13 PM org.slf4j.impl.JCLLoggerAdapter info
INFO: Command line arguments: {--clustering=null, --distanceMeasure=[org.apache.mahout.common.distance.EuclideanDistanceMeasure], --endPhase=[2147483647], --input=[file:/tmp/mahout-TestCanopyCreation-8152614777207132160/testdata], --method=[mapreduce], --outlierThreshold=[0.7], --output=[file:/tmp/mahout-TestCanopyCreation-8152614777207132160/output], --overwrite=null, --startPhase=[0], --t1=[3.1], --t2=[2.1], --tempDir=[temp]}
Dec 5, 2012 10:06:13 PM org.slf4j.impl.JCLLoggerAdapter info
INFO: Deleting file:/tmp/mahout-TestCanopyCreation-8152614777207132160/output
Dec 5, 2012 10:06:13 PM org.slf4j.impl.JCLLoggerAdapter info
INFO: Build Clusters Input: file:/tmp/mahout-TestCanopyCreation-8152614777207132160/testdata Out: file:/tmp/mahout-TestCanopyCreation-8152614777207132160/output Measure: org.apache.mahout.common.distance.EuclideanDistanceMeasure@bafda6 t1: 3.1 t2: 2.1
Dec 5, 2012 10:06:13 PM org.apache.hadoop.mapred.JobClient copyAndConfigureFiles
WARNING: No job jar file set.  User classes may not be found. See JobConf(Class) or JobConf#setJar(String).
Dec 5, 2012 10:06:13 PM org.apache.hadoop.mapreduce.lib.input.FileInputFormat listStatus
INFO: Total input paths to process : 2
Dec 5, 2012 10:06:13 PM org.apache.hadoop.mapred.JobClient monitorAndPrintJob
INFO: Running job: job_local_0078
Dec 5, 2012 10:06:13 PM org.apache.hadoop.mapred.MapTask$MapOutputBuffer <init>
INFO: io.sort.mb = 100
Dec 5, 2012 10:06:14 PM org.apache.hadoop.mapred.MapTask$MapOutputBuffer <init>
INFO: data buffer = 79691776/99614720
Dec 5, 2012 10:06:14 PM org.apache.hadoop.mapred.MapTask$MapOutputBuffer <init>
INFO: record buffer = 262144/327680
Dec 5, 2012 10:06:14 PM org.apache.hadoop.mapred.MapTask$MapOutputBuffer flush
INFO: Starting flush of map output
Dec 5, 2012 10:06:14 PM org.apache.hadoop.mapred.MapTask$MapOutputBuffer sortAndSpill
INFO: Finished spill 0
Dec 5, 2012 10:06:14 PM org.apache.hadoop.mapred.Task done
INFO: Task:attempt_local_0078_m_000000_0 is done. And is in the process of commiting
Dec 5, 2012 10:06:14 PM org.apache.hadoop.mapred.JobClient monitorAndPrintJob
INFO:  map 0% reduce 0%
Dec 5, 2012 10:06:16 PM org.apache.hadoop.mapred.LocalJobRunner$Job statusUpdate
INFO: 
Dec 5, 2012 10:06:16 PM org.apache.hadoop.mapred.Task sendDone
INFO: Task 'attempt_local_0078_m_000000_0' done.
Dec 5, 2012 10:06:16 PM org.apache.hadoop.mapred.MapTask$MapOutputBuffer <init>
INFO: io.sort.mb = 100
Dec 5, 2012 10:06:17 PM org.apache.hadoop.mapred.MapTask$MapOutputBuffer <init>
INFO: data buffer = 79691776/99614720
Dec 5, 2012 10:06:17 PM org.apache.hadoop.mapred.MapTask$MapOutputBuffer <init>
INFO: record buffer = 262144/327680
Dec 5, 2012 10:06:17 PM org.apache.hadoop.mapred.MapTask$MapOutputBuffer flush
INFO: Starting flush of map output
Dec 5, 2012 10:06:17 PM org.apache.hadoop.mapred.MapTask$MapOutputBuffer sortAndSpill
INFO: Finished spill 0
Dec 5, 2012 10:06:17 PM org.apache.hadoop.mapred.Task done
INFO: Task:attempt_local_0078_m_000001_0 is done. And is in the process of commiting
Dec 5, 2012 10:06:17 PM org.apache.hadoop.mapred.JobClient monitorAndPrintJob
INFO:  map 100% reduce 0%
Dec 5, 2012 10:06:19 PM org.apache.hadoop.mapred.LocalJobRunner$Job statusUpdate
INFO: 
Dec 5, 2012 10:06:19 PM org.apache.hadoop.mapred.Task sendDone
INFO: Task 'attempt_local_0078_m_000001_0' done.
Dec 5, 2012 10:06:19 PM org.apache.hadoop.mapred.LocalJobRunner$Job statusUpdate
INFO: 
Dec 5, 2012 10:06:19 PM org.apache.hadoop.mapred.Merger$MergeQueue merge
INFO: Merging 2 sorted segments
Dec 5, 2012 10:06:19 PM org.apache.hadoop.mapred.Merger$MergeQueue merge
INFO: Down to the last merge-pass, with 2 segments left of total size: 196 bytes
Dec 5, 2012 10:06:19 PM org.apache.hadoop.mapred.LocalJobRunner$Job statusUpdate
INFO: 
Dec 5, 2012 10:06:19 PM org.apache.hadoop.mapred.Task done
INFO: Task:attempt_local_0078_r_000000_0 is done. And is in the process of commiting
Dec 5, 2012 10:06:19 PM org.apache.hadoop.mapred.LocalJobRunner$Job statusUpdate
INFO: 
Dec 5, 2012 10:06:19 PM org.apache.hadoop.mapred.Task commit
INFO: Task attempt_local_0078_r_000000_0 is allowed to commit now
Dec 5, 2012 10:06:19 PM org.apache.hadoop.mapreduce.lib.output.FileOutputCommitter commitTask
INFO: Saved output of task 'attempt_local_0078_r_000000_0' to file:/tmp/mahout-TestCanopyCreation-8152614777207132160/output/clusters-0-final
Dec 5, 2012 10:06:22 PM org.apache.hadoop.mapred.LocalJobRunner$Job statusUpdate
INFO: reduce > reduce
Dec 5, 2012 10:06:22 PM org.apache.hadoop.mapred.Task sendDone
INFO: Task 'attempt_local_0078_r_000000_0' done.
Dec 5, 2012 10:06:23 PM org.apache.hadoop.mapred.JobClient monitorAndPrintJob
INFO:  map 100% reduce 100%
Dec 5, 2012 10:06:23 PM org.apache.hadoop.mapred.JobClient monitorAndPrintJob
INFO: Job complete: job_local_0078
Dec 5, 2012 10:06:23 PM org.apache.hadoop.mapred.Counters log
INFO: Counters: 16
Dec 5, 2012 10:06:23 PM org.apache.hadoop.mapred.Counters log
INFO:   File Output Format Counters 
Dec 5, 2012 10:06:23 PM org.apache.hadoop.mapred.Counters log
INFO:     Bytes Written=484
Dec 5, 2012 10:06:23 PM org.apache.hadoop.mapred.Counters log
INFO:   FileSystemCounters
Dec 5, 2012 10:06:23 PM org.apache.hadoop.mapred.Counters log
INFO:     FILE_BYTES_READ=6113593
Dec 5, 2012 10:06:23 PM org.apache.hadoop.mapred.Counters log
INFO:     FILE_BYTES_WRITTEN=10714850
Dec 5, 2012 10:06:23 PM org.apache.hadoop.mapred.Counters log
INFO:   File Input Format Counters 
Dec 5, 2012 10:06:23 PM org.apache.hadoop.mapred.Counters log
INFO:     Bytes Read=812
Dec 5, 2012 10:06:23 PM org.apache.hadoop.mapred.Counters log
INFO:   Map-Reduce Framework
Dec 5, 2012 10:06:23 PM org.apache.hadoop.mapred.Counters log
INFO:     Reduce input groups=1
Dec 5, 2012 10:06:23 PM org.apache.hadoop.mapred.Counters log
INFO:     Map output materialized bytes=204
Dec 5, 2012 10:06:23 PM org.apache.hadoop.mapred.Counters log
INFO:     Combine output records=0
Dec 5, 2012 10:06:23 PM org.apache.hadoop.mapred.Counters log
INFO:     Map input records=18
Dec 5, 2012 10:06:23 PM org.apache.hadoop.mapred.Counters log
INFO:     Reduce shuffle bytes=0
Dec 5, 2012 10:06:23 PM org.apache.hadoop.mapred.Counters log
INFO:     Reduce output records=2
Dec 5, 2012 10:06:23 PM org.apache.hadoop.mapred.Counters log
INFO:     Spilled Records=12
Dec 5, 2012 10:06:23 PM org.apache.hadoop.mapred.Counters log
INFO:     Map output bytes=180
Dec 5, 2012 10:06:23 PM org.apache.hadoop.mapred.Counters log
INFO:     Combine input records=0
Dec 5, 2012 10:06:23 PM org.apache.hadoop.mapred.Counters log
INFO:     Map output records=6
Dec 5, 2012 10:06:23 PM org.apache.hadoop.mapred.Counters log
INFO:     SPLIT_RAW_BYTES=270
Dec 5, 2012 10:06:23 PM org.apache.hadoop.mapred.Counters log
INFO:     Reduce input records=6
Dec 5, 2012 10:06:23 PM org.apache.hadoop.mapred.JobClient copyAndConfigureFiles
WARNING: Use GenericOptionsParser for parsing the arguments. Applications should implement Tool for the same.
Dec 5, 2012 10:06:23 PM org.apache.hadoop.mapred.JobClient copyAndConfigureFiles
WARNING: No job jar file set.  User classes may not be found. See JobConf(Class) or JobConf#setJar(String).
Dec 5, 2012 10:06:23 PM org.apache.hadoop.mapreduce.lib.input.FileInputFormat listStatus
INFO: Total input paths to process : 2
Dec 5, 2012 10:06:23 PM org.apache.hadoop.mapred.JobClient monitorAndPrintJob
INFO: Running job: job_local_0079
Dec 5, 2012 10:06:23 PM org.apache.hadoop.mapred.Task done
INFO: Task:attempt_local_0079_m_000000_0 is done. And is in the process of commiting
Dec 5, 2012 10:06:23 PM org.apache.hadoop.mapred.LocalJobRunner$Job statusUpdate
INFO: 
Dec 5, 2012 10:06:23 PM org.apache.hadoop.mapred.Task commit
INFO: Task attempt_local_0079_m_000000_0 is allowed to commit now
Dec 5, 2012 10:06:23 PM org.apache.hadoop.mapreduce.lib.output.FileOutputCommitter commitTask
INFO: Saved output of task 'attempt_local_0079_m_000000_0' to file:/tmp/mahout-TestCanopyCreation-8152614777207132160/output/clusteredPoints
Dec 5, 2012 10:06:24 PM org.apache.hadoop.mapred.JobClient monitorAndPrintJob
INFO:  map 0% reduce 0%
Dec 5, 2012 10:06:26 PM org.apache.hadoop.mapred.LocalJobRunner$Job statusUpdate
INFO: 
Dec 5, 2012 10:06:26 PM org.apache.hadoop.mapred.Task sendDone
INFO: Task 'attempt_local_0079_m_000000_0' done.
Dec 5, 2012 10:06:26 PM org.apache.hadoop.mapred.JobClient monitorAndPrintJob
INFO:  map 100% reduce 0%
Dec 5, 2012 10:06:27 PM org.apache.hadoop.mapred.Task done
INFO: Task:attempt_local_0079_m_000001_0 is done. And is in the process of commiting
Dec 5, 2012 10:06:27 PM org.apache.hadoop.mapred.LocalJobRunner$Job statusUpdate
INFO: 
Dec 5, 2012 10:06:27 PM org.apache.hadoop.mapred.Task commit
INFO: Task attempt_local_0079_m_000001_0 is allowed to commit now
Dec 5, 2012 10:06:27 PM org.apache.hadoop.mapreduce.lib.output.FileOutputCommitter commitTask
INFO: Saved output of task 'attempt_local_0079_m_000001_0' to file:/tmp/mahout-TestCanopyCreation-8152614777207132160/output/clusteredPoints
Dec 5, 2012 10:06:27 PM org.apache.hadoop.mapred.JobClient monitorAndPrintJob
INFO:  map 50% reduce 0%
Dec 5, 2012 10:06:29 PM org.apache.hadoop.mapred.LocalJobRunner$Job statusUpdate
INFO: 
Dec 5, 2012 10:06:29 PM org.apache.hadoop.mapred.Task sendDone
INFO: Task 'attempt_local_0079_m_000001_0' done.
Dec 5, 2012 10:06:30 PM org.apache.hadoop.mapred.JobClient monitorAndPrintJob
INFO:  map 100% reduce 0%
Dec 5, 2012 10:06:30 PM org.apache.hadoop.mapred.JobClient monitorAndPrintJob
INFO: Job complete: job_local_0079
Dec 5, 2012 10:06:30 PM org.apache.hadoop.mapred.Counters log
INFO: Counters: 8
Dec 5, 2012 10:06:30 PM org.apache.hadoop.mapred.Counters log
INFO:   File Output Format Counters 
Dec 5, 2012 10:06:30 PM org.apache.hadoop.mapred.Counters log
INFO:     Bytes Written=920
Dec 5, 2012 10:06:30 PM org.apache.hadoop.mapred.Counters log
INFO:   FileSystemCounters
Dec 5, 2012 10:06:30 PM org.apache.hadoop.mapred.Counters log
INFO:     FILE_BYTES_READ=4080749
Dec 5, 2012 10:06:30 PM org.apache.hadoop.mapred.Counters log
INFO:     FILE_BYTES_WRITTEN=7210082
Dec 5, 2012 10:06:30 PM org.apache.hadoop.mapred.Counters log
INFO:   File Input Format Counters 
Dec 5, 2012 10:06:30 PM org.apache.hadoop.mapred.Counters log
INFO:     Bytes Read=812
Dec 5, 2012 10:06:30 PM org.apache.hadoop.mapred.Counters log
INFO:   Map-Reduce Framework
Dec 5, 2012 10:06:30 PM org.apache.hadoop.mapred.Counters log
INFO:     Map input records=18
Dec 5, 2012 10:06:30 PM org.apache.hadoop.mapred.Counters log
INFO:     Spilled Records=0
Dec 5, 2012 10:06:30 PM org.apache.hadoop.mapred.Counters log
INFO:     Map output records=16
Dec 5, 2012 10:06:30 PM org.apache.hadoop.mapred.Counters log
INFO:     SPLIT_RAW_BYTES=270
