-------------------------------------------------------------------------------
Test set: org.apache.mahout.fpm.pfpgrowth.fpgrowth.FrequentPatternMaxHeapTest
-------------------------------------------------------------------------------
Tests run: 1, Failures: 0, Errors: 0, Skipped: 0, Time elapsed: 0.66 sec
