-------------------------------------------------------------------------------
Test set: org.apache.mahout.cf.taste.impl.recommender.ItemUserAverageRecommenderTest
-------------------------------------------------------------------------------
Tests run: 1, Failures: 0, Errors: 0, Skipped: 0, Time elapsed: 0.049 sec
