-------------------------------------------------------------------------------
Test set: org.apache.mahout.classifier.df.mapreduce.inmem.InMemInputFormatTest
-------------------------------------------------------------------------------
Tests run: 2, Failures: 0, Errors: 0, Skipped: 0, Time elapsed: 0.1 sec
