Input prepared, starting solver...
Dec 6, 2012 2:28:49 PM org.apache.hadoop.mapred.JobClient copyAndConfigureFiles
WARNING: Use GenericOptionsParser for parsing the arguments. Applications should implement Tool for the same.
Dec 6, 2012 2:28:49 PM org.apache.hadoop.mapred.JobClient copyAndConfigureFiles
WARNING: No job jar file set.  User classes may not be found. See JobConf(Class) or JobConf#setJar(String).
Dec 6, 2012 2:28:49 PM org.apache.hadoop.mapreduce.lib.input.FileInputFormat listStatus
INFO: Total input paths to process : 1
Dec 6, 2012 2:28:51 PM org.apache.hadoop.mapred.Task done
INFO: Task:attempt_local_0219_m_000000_0 is done. And is in the process of commiting
Dec 6, 2012 2:28:51 PM org.apache.hadoop.mapred.LocalJobRunner$Job statusUpdate
INFO: 
Dec 6, 2012 2:28:51 PM org.apache.hadoop.mapred.Task commit
INFO: Task attempt_local_0219_m_000000_0 is allowed to commit now
Dec 6, 2012 2:28:51 PM org.apache.hadoop.mapreduce.lib.output.FileOutputCommitter commitTask
INFO: Saved output of task 'attempt_local_0219_m_000000_0' to file:/tmp/mahout-LocalSSVDSolverDenseTest-5554033936779348992/svd-proc/SSVD-out/Q-job
Dec 6, 2012 2:28:53 PM org.apache.hadoop.mapred.LocalJobRunner$Job statusUpdate
INFO: 
Dec 6, 2012 2:28:53 PM org.apache.hadoop.mapred.Task sendDone
INFO: Task 'attempt_local_0219_m_000000_0' done.
Dec 6, 2012 2:28:55 PM org.apache.hadoop.mapred.JobClient copyAndConfigureFiles
WARNING: Use GenericOptionsParser for parsing the arguments. Applications should implement Tool for the same.
Dec 6, 2012 2:28:55 PM org.apache.hadoop.mapred.JobClient copyAndConfigureFiles
WARNING: No job jar file set.  User classes may not be found. See JobConf(Class) or JobConf#setJar(String).
Dec 6, 2012 2:28:55 PM org.apache.hadoop.mapreduce.lib.input.FileInputFormat listStatus
INFO: Total input paths to process : 1
Dec 6, 2012 2:28:55 PM org.apache.hadoop.mapred.MapTask$MapOutputBuffer <init>
INFO: io.sort.mb = 100
Dec 6, 2012 2:28:55 PM org.apache.hadoop.mapred.MapTask$MapOutputBuffer <init>
INFO: data buffer = 79691776/99614720
Dec 6, 2012 2:28:55 PM org.apache.hadoop.mapred.MapTask$MapOutputBuffer <init>
INFO: record buffer = 262144/327680
Dec 6, 2012 2:28:57 PM org.apache.hadoop.mapred.MapTask$MapOutputBuffer flush
INFO: Starting flush of map output
Dec 6, 2012 2:28:57 PM org.apache.hadoop.mapred.MapTask$MapOutputBuffer sortAndSpill
INFO: Finished spill 0
Dec 6, 2012 2:28:57 PM org.apache.hadoop.mapred.Task done
INFO: Task:attempt_local_0220_m_000000_0 is done. And is in the process of commiting
Dec 6, 2012 2:28:57 PM org.apache.hadoop.mapred.LocalJobRunner$Job statusUpdate
INFO: 
Dec 6, 2012 2:28:57 PM org.apache.hadoop.mapred.Task commit
INFO: Task attempt_local_0220_m_000000_0 is allowed to commit now
Dec 6, 2012 2:28:57 PM org.apache.hadoop.mapreduce.lib.output.FileOutputCommitter commitTask
INFO: Saved output of task 'attempt_local_0220_m_000000_0' to file:/tmp/mahout-LocalSSVDSolverDenseTest-5554033936779348992/svd-proc/SSVD-out/Bt-job
Dec 6, 2012 2:28:58 PM org.apache.hadoop.mapred.LocalJobRunner$Job statusUpdate
INFO: 
Dec 6, 2012 2:28:58 PM org.apache.hadoop.mapred.Task sendDone
INFO: Task 'attempt_local_0220_m_000000_0' done.
Dec 6, 2012 2:28:58 PM org.apache.hadoop.mapred.LocalJobRunner$Job statusUpdate
INFO: 
Dec 6, 2012 2:28:58 PM org.apache.hadoop.mapred.Merger$MergeQueue merge
INFO: Merging 1 sorted segments
Dec 6, 2012 2:28:58 PM org.apache.hadoop.mapred.Merger$MergeQueue merge
INFO: Down to the last merge-pass, with 1 segments left of total size: 10715 bytes
Dec 6, 2012 2:28:58 PM org.apache.hadoop.mapred.LocalJobRunner$Job statusUpdate
INFO: 
Dec 6, 2012 2:28:58 PM org.apache.hadoop.mapred.Task done
INFO: Task:attempt_local_0220_r_000000_0 is done. And is in the process of commiting
Dec 6, 2012 2:28:58 PM org.apache.hadoop.mapred.LocalJobRunner$Job statusUpdate
INFO: 
Dec 6, 2012 2:28:58 PM org.apache.hadoop.mapred.Task commit
INFO: Task attempt_local_0220_r_000000_0 is allowed to commit now
Dec 6, 2012 2:28:58 PM org.apache.hadoop.mapreduce.lib.output.FileOutputCommitter commitTask
INFO: Saved output of task 'attempt_local_0220_r_000000_0' to file:/tmp/mahout-LocalSSVDSolverDenseTest-5554033936779348992/svd-proc/SSVD-out/Bt-job
Dec 6, 2012 2:29:01 PM org.apache.hadoop.mapred.LocalJobRunner$Job statusUpdate
INFO: reduce > reduce
Dec 6, 2012 2:29:01 PM org.apache.hadoop.mapred.LocalJobRunner$Job statusUpdate
INFO: reduce > reduce
Dec 6, 2012 2:29:01 PM org.apache.hadoop.mapred.Task sendDone
INFO: Task 'attempt_local_0220_r_000000_0' done.
Dec 6, 2012 2:29:05 PM org.apache.hadoop.mapred.JobClient copyAndConfigureFiles
WARNING: Use GenericOptionsParser for parsing the arguments. Applications should implement Tool for the same.
Dec 6, 2012 2:29:05 PM org.apache.hadoop.mapred.JobClient copyAndConfigureFiles
WARNING: No job jar file set.  User classes may not be found. See JobConf(Class) or JobConf#setJar(String).
Dec 6, 2012 2:29:05 PM org.apache.hadoop.mapreduce.lib.input.FileInputFormat listStatus
INFO: Total input paths to process : 1
Dec 6, 2012 2:29:05 PM org.apache.hadoop.mapred.MapTask$MapOutputBuffer <init>
INFO: io.sort.mb = 100
Dec 6, 2012 2:29:05 PM org.apache.hadoop.mapred.MapTask$MapOutputBuffer <init>
INFO: data buffer = 79691776/99614720
Dec 6, 2012 2:29:05 PM org.apache.hadoop.mapred.MapTask$MapOutputBuffer <init>
INFO: record buffer = 262144/327680
Dec 6, 2012 2:29:06 PM org.apache.hadoop.mapred.MapTask$MapOutputBuffer flush
INFO: Starting flush of map output
Dec 6, 2012 2:29:06 PM org.apache.hadoop.mapred.MapTask$MapOutputBuffer sortAndSpill
INFO: Finished spill 0
Dec 6, 2012 2:29:06 PM org.apache.hadoop.mapred.Task done
INFO: Task:attempt_local_0221_m_000000_0 is done. And is in the process of commiting
Dec 6, 2012 2:29:08 PM org.apache.hadoop.mapred.LocalJobRunner$Job statusUpdate
INFO: 
Dec 6, 2012 2:29:08 PM org.apache.hadoop.mapred.Task sendDone
INFO: Task 'attempt_local_0221_m_000000_0' done.
Dec 6, 2012 2:29:08 PM org.apache.hadoop.mapred.LocalJobRunner$Job statusUpdate
INFO: 
Dec 6, 2012 2:29:08 PM org.apache.hadoop.mapred.Merger$MergeQueue merge
INFO: Merging 1 sorted segments
Dec 6, 2012 2:29:08 PM org.apache.hadoop.mapred.Merger$MergeQueue merge
INFO: Down to the last merge-pass, with 1 segments left of total size: 208072 bytes
Dec 6, 2012 2:29:08 PM org.apache.hadoop.mapred.LocalJobRunner$Job statusUpdate
INFO: 
Dec 6, 2012 2:29:08 PM org.apache.hadoop.mapred.Task done
INFO: Task:attempt_local_0221_r_000000_0 is done. And is in the process of commiting
Dec 6, 2012 2:29:08 PM org.apache.hadoop.mapred.LocalJobRunner$Job statusUpdate
INFO: 
Dec 6, 2012 2:29:08 PM org.apache.hadoop.mapred.Task commit
INFO: Task attempt_local_0221_r_000000_0 is allowed to commit now
Dec 6, 2012 2:29:08 PM org.apache.hadoop.mapreduce.lib.output.FileOutputCommitter commitTask
INFO: Saved output of task 'attempt_local_0221_r_000000_0' to file:/tmp/mahout-LocalSSVDSolverDenseTest-5554033936779348992/svd-proc/SSVD-out/ABt-job-1
Dec 6, 2012 2:29:11 PM org.apache.hadoop.mapred.LocalJobRunner$Job statusUpdate
INFO: reduce > reduce
Dec 6, 2012 2:29:11 PM org.apache.hadoop.mapred.Task sendDone
INFO: Task 'attempt_local_0221_r_000000_0' done.
Dec 6, 2012 2:29:15 PM org.apache.hadoop.mapred.JobClient copyAndConfigureFiles
WARNING: Use GenericOptionsParser for parsing the arguments. Applications should implement Tool for the same.
Dec 6, 2012 2:29:15 PM org.apache.hadoop.mapred.JobClient copyAndConfigureFiles
WARNING: No job jar file set.  User classes may not be found. See JobConf(Class) or JobConf#setJar(String).
Dec 6, 2012 2:29:15 PM org.apache.hadoop.mapreduce.lib.input.FileInputFormat listStatus
INFO: Total input paths to process : 1
Dec 6, 2012 2:29:15 PM org.apache.hadoop.mapred.MapTask$MapOutputBuffer <init>
INFO: io.sort.mb = 100
Dec 6, 2012 2:29:15 PM org.apache.hadoop.mapred.MapTask$MapOutputBuffer <init>
INFO: data buffer = 79691776/99614720
Dec 6, 2012 2:29:15 PM org.apache.hadoop.mapred.MapTask$MapOutputBuffer <init>
INFO: record buffer = 262144/327680
Dec 6, 2012 2:29:16 PM org.apache.hadoop.mapred.MapTask$MapOutputBuffer flush
INFO: Starting flush of map output
Dec 6, 2012 2:29:16 PM org.apache.hadoop.mapred.MapTask$MapOutputBuffer sortAndSpill
INFO: Finished spill 0
Dec 6, 2012 2:29:16 PM org.apache.hadoop.mapred.Task done
INFO: Task:attempt_local_0222_m_000000_0 is done. And is in the process of commiting
Dec 6, 2012 2:29:16 PM org.apache.hadoop.mapred.LocalJobRunner$Job statusUpdate
INFO: 
Dec 6, 2012 2:29:16 PM org.apache.hadoop.mapred.Task commit
INFO: Task attempt_local_0222_m_000000_0 is allowed to commit now
Dec 6, 2012 2:29:16 PM org.apache.hadoop.mapreduce.lib.output.FileOutputCommitter commitTask
INFO: Saved output of task 'attempt_local_0222_m_000000_0' to file:/tmp/mahout-LocalSSVDSolverDenseTest-5554033936779348992/svd-proc/SSVD-out/Bt-job-1
Dec 6, 2012 2:29:18 PM org.apache.hadoop.mapred.LocalJobRunner$Job statusUpdate
INFO: 
Dec 6, 2012 2:29:18 PM org.apache.hadoop.mapred.Task sendDone
INFO: Task 'attempt_local_0222_m_000000_0' done.
Dec 6, 2012 2:29:18 PM org.apache.hadoop.mapred.LocalJobRunner$Job statusUpdate
INFO: 
Dec 6, 2012 2:29:18 PM org.apache.hadoop.mapred.Merger$MergeQueue merge
INFO: Merging 1 sorted segments
Dec 6, 2012 2:29:18 PM org.apache.hadoop.mapred.Merger$MergeQueue merge
INFO: Down to the last merge-pass, with 1 segments left of total size: 10715 bytes
Dec 6, 2012 2:29:18 PM org.apache.hadoop.mapred.LocalJobRunner$Job statusUpdate
INFO: 
Dec 6, 2012 2:29:18 PM org.apache.hadoop.mapred.Task done
INFO: Task:attempt_local_0222_r_000000_0 is done. And is in the process of commiting
Dec 6, 2012 2:29:18 PM org.apache.hadoop.mapred.LocalJobRunner$Job statusUpdate
INFO: 
Dec 6, 2012 2:29:18 PM org.apache.hadoop.mapred.Task commit
INFO: Task attempt_local_0222_r_000000_0 is allowed to commit now
Dec 6, 2012 2:29:18 PM org.apache.hadoop.mapreduce.lib.output.FileOutputCommitter commitTask
INFO: Saved output of task 'attempt_local_0222_r_000000_0' to file:/tmp/mahout-LocalSSVDSolverDenseTest-5554033936779348992/svd-proc/SSVD-out/Bt-job-1
Dec 6, 2012 2:29:21 PM org.apache.hadoop.mapred.LocalJobRunner$Job statusUpdate
INFO: reduce > reduce
Dec 6, 2012 2:29:21 PM org.apache.hadoop.mapred.LocalJobRunner$Job statusUpdate
INFO: reduce > reduce
Dec 6, 2012 2:29:21 PM org.apache.hadoop.mapred.Task sendDone
INFO: Task 'attempt_local_0222_r_000000_0' done.
Dec 6, 2012 2:29:25 PM org.apache.hadoop.mapred.JobClient copyAndConfigureFiles
WARNING: Use GenericOptionsParser for parsing the arguments. Applications should implement Tool for the same.
Dec 6, 2012 2:29:25 PM org.apache.hadoop.mapred.JobClient copyAndConfigureFiles
WARNING: No job jar file set.  User classes may not be found. See JobConf(Class) or JobConf#setJar(String).
Dec 6, 2012 2:29:25 PM org.apache.hadoop.mapreduce.lib.input.FileInputFormat listStatus
INFO: Total input paths to process : 1
Dec 6, 2012 2:29:25 PM org.apache.hadoop.mapred.JobClient copyAndConfigureFiles
WARNING: Use GenericOptionsParser for parsing the arguments. Applications should implement Tool for the same.
Dec 6, 2012 2:29:25 PM org.apache.hadoop.mapred.JobClient copyAndConfigureFiles
WARNING: No job jar file set.  User classes may not be found. See JobConf(Class) or JobConf#setJar(String).
Dec 6, 2012 2:29:25 PM org.apache.hadoop.mapreduce.lib.input.FileInputFormat listStatus
INFO: Total input paths to process : 1
Dec 6, 2012 2:29:25 PM org.apache.hadoop.mapred.Task done
INFO: Task:attempt_local_0224_m_000000_0 is done. And is in the process of commiting
Dec 6, 2012 2:29:25 PM org.apache.hadoop.mapred.LocalJobRunner$Job statusUpdate
INFO: 
Dec 6, 2012 2:29:25 PM org.apache.hadoop.mapred.Task commit
INFO: Task attempt_local_0224_m_000000_0 is allowed to commit now
Dec 6, 2012 2:29:25 PM org.apache.hadoop.mapreduce.lib.output.FileOutputCommitter commitTask
INFO: Saved output of task 'attempt_local_0224_m_000000_0' to file:/tmp/mahout-LocalSSVDSolverDenseTest-5554033936779348992/svd-proc/SSVD-out/V
Dec 6, 2012 2:29:25 PM org.apache.hadoop.mapred.Task done
INFO: Task:attempt_local_0223_m_000000_0 is done. And is in the process of commiting
Dec 6, 2012 2:29:25 PM org.apache.hadoop.mapred.LocalJobRunner$Job statusUpdate
INFO: 
Dec 6, 2012 2:29:25 PM org.apache.hadoop.mapred.Task commit
INFO: Task attempt_local_0223_m_000000_0 is allowed to commit now
Dec 6, 2012 2:29:25 PM org.apache.hadoop.mapreduce.lib.output.FileOutputCommitter commitTask
INFO: Saved output of task 'attempt_local_0223_m_000000_0' to file:/tmp/mahout-LocalSSVDSolverDenseTest-5554033936779348992/svd-proc/SSVD-out/U
Dec 6, 2012 2:29:28 PM org.apache.hadoop.mapred.LocalJobRunner$Job statusUpdate
INFO: 
Dec 6, 2012 2:29:28 PM org.apache.hadoop.mapred.Task sendDone
INFO: Task 'attempt_local_0223_m_000000_0' done.
Dec 6, 2012 2:29:28 PM org.apache.hadoop.mapred.LocalJobRunner$Job statusUpdate
INFO: 
Dec 6, 2012 2:29:28 PM org.apache.hadoop.mapred.Task sendDone
INFO: Task 'attempt_local_0224_m_000000_0' done.
--SSVD solver singular values:
svs: 10.000000  4.000000  0.999998  0.100000  0.100000  0.100000  0.100000  0.100000  0.100000  0.100000  0.100000  0.100000  0.100000  
Input prepared, starting solver...
Dec 6, 2012 2:29:35 PM org.apache.hadoop.mapred.JobClient copyAndConfigureFiles
WARNING: Use GenericOptionsParser for parsing the arguments. Applications should implement Tool for the same.
Dec 6, 2012 2:29:35 PM org.apache.hadoop.mapred.JobClient copyAndConfigureFiles
WARNING: No job jar file set.  User classes may not be found. See JobConf(Class) or JobConf#setJar(String).
Dec 6, 2012 2:29:35 PM org.apache.hadoop.mapreduce.lib.input.FileInputFormat listStatus
INFO: Total input paths to process : 1
Dec 6, 2012 2:29:36 PM org.apache.hadoop.mapred.Task done
INFO: Task:attempt_local_0225_m_000000_0 is done. And is in the process of commiting
Dec 6, 2012 2:29:36 PM org.apache.hadoop.mapred.LocalJobRunner$Job statusUpdate
INFO: 
Dec 6, 2012 2:29:36 PM org.apache.hadoop.mapred.Task commit
INFO: Task attempt_local_0225_m_000000_0 is allowed to commit now
Dec 6, 2012 2:29:36 PM org.apache.hadoop.mapreduce.lib.output.FileOutputCommitter commitTask
INFO: Saved output of task 'attempt_local_0225_m_000000_0' to file:/tmp/mahout-LocalSSVDSolverDenseTest-5454440298280925184/svd-proc/SSVD-out/Q-job
Dec 6, 2012 2:29:38 PM org.apache.hadoop.mapred.LocalJobRunner$Job statusUpdate
INFO: 
Dec 6, 2012 2:29:38 PM org.apache.hadoop.mapred.Task sendDone
INFO: Task 'attempt_local_0225_m_000000_0' done.
Dec 6, 2012 2:29:40 PM org.apache.hadoop.mapred.JobClient copyAndConfigureFiles
WARNING: Use GenericOptionsParser for parsing the arguments. Applications should implement Tool for the same.
Dec 6, 2012 2:29:40 PM org.apache.hadoop.mapred.JobClient copyAndConfigureFiles
WARNING: No job jar file set.  User classes may not be found. See JobConf(Class) or JobConf#setJar(String).
Dec 6, 2012 2:29:40 PM org.apache.hadoop.mapreduce.lib.input.FileInputFormat listStatus
INFO: Total input paths to process : 1
Dec 6, 2012 2:29:40 PM org.apache.hadoop.mapred.MapTask$MapOutputBuffer <init>
INFO: io.sort.mb = 100
Dec 6, 2012 2:29:40 PM org.apache.hadoop.mapred.MapTask$MapOutputBuffer <init>
INFO: data buffer = 79691776/99614720
Dec 6, 2012 2:29:40 PM org.apache.hadoop.mapred.MapTask$MapOutputBuffer <init>
INFO: record buffer = 262144/327680
Dec 6, 2012 2:29:41 PM org.apache.hadoop.mapred.MapTask$MapOutputBuffer flush
INFO: Starting flush of map output
Dec 6, 2012 2:29:41 PM org.apache.hadoop.mapred.MapTask$MapOutputBuffer sortAndSpill
INFO: Finished spill 0
Dec 6, 2012 2:29:41 PM org.apache.hadoop.mapred.Task done
INFO: Task:attempt_local_0226_m_000000_0 is done. And is in the process of commiting
Dec 6, 2012 2:29:41 PM org.apache.hadoop.mapred.LocalJobRunner$Job statusUpdate
INFO: 
Dec 6, 2012 2:29:41 PM org.apache.hadoop.mapred.Task commit
INFO: Task attempt_local_0226_m_000000_0 is allowed to commit now
Dec 6, 2012 2:29:41 PM org.apache.hadoop.mapreduce.lib.output.FileOutputCommitter commitTask
INFO: Saved output of task 'attempt_local_0226_m_000000_0' to file:/tmp/mahout-LocalSSVDSolverDenseTest-5454440298280925184/svd-proc/SSVD-out/Bt-job
Dec 6, 2012 2:29:43 PM org.apache.hadoop.mapred.LocalJobRunner$Job statusUpdate
INFO: 
Dec 6, 2012 2:29:43 PM org.apache.hadoop.mapred.Task sendDone
INFO: Task 'attempt_local_0226_m_000000_0' done.
Dec 6, 2012 2:29:43 PM org.apache.hadoop.mapred.LocalJobRunner$Job statusUpdate
INFO: 
Dec 6, 2012 2:29:43 PM org.apache.hadoop.mapred.Merger$MergeQueue merge
INFO: Merging 1 sorted segments
Dec 6, 2012 2:29:43 PM org.apache.hadoop.mapred.Merger$MergeQueue merge
INFO: Down to the last merge-pass, with 1 segments left of total size: 10715 bytes
Dec 6, 2012 2:29:43 PM org.apache.hadoop.mapred.LocalJobRunner$Job statusUpdate
INFO: 
Dec 6, 2012 2:29:43 PM org.apache.hadoop.mapred.Task done
INFO: Task:attempt_local_0226_r_000000_0 is done. And is in the process of commiting
Dec 6, 2012 2:29:43 PM org.apache.hadoop.mapred.LocalJobRunner$Job statusUpdate
INFO: 
Dec 6, 2012 2:29:43 PM org.apache.hadoop.mapred.Task commit
INFO: Task attempt_local_0226_r_000000_0 is allowed to commit now
Dec 6, 2012 2:29:43 PM org.apache.hadoop.mapreduce.lib.output.FileOutputCommitter commitTask
INFO: Saved output of task 'attempt_local_0226_r_000000_0' to file:/tmp/mahout-LocalSSVDSolverDenseTest-5454440298280925184/svd-proc/SSVD-out/Bt-job
Dec 6, 2012 2:29:46 PM org.apache.hadoop.mapred.LocalJobRunner$Job statusUpdate
INFO: reduce > reduce
Dec 6, 2012 2:29:46 PM org.apache.hadoop.mapred.Task sendDone
INFO: Task 'attempt_local_0226_r_000000_0' done.
Dec 6, 2012 2:29:50 PM org.apache.hadoop.mapred.JobClient copyAndConfigureFiles
WARNING: Use GenericOptionsParser for parsing the arguments. Applications should implement Tool for the same.
Dec 6, 2012 2:29:50 PM org.apache.hadoop.mapred.JobClient copyAndConfigureFiles
WARNING: No job jar file set.  User classes may not be found. See JobConf(Class) or JobConf#setJar(String).
Dec 6, 2012 2:29:50 PM org.apache.hadoop.mapreduce.lib.input.FileInputFormat listStatus
INFO: Total input paths to process : 1
Dec 6, 2012 2:29:50 PM org.apache.hadoop.mapred.JobClient copyAndConfigureFiles
WARNING: Use GenericOptionsParser for parsing the arguments. Applications should implement Tool for the same.
Dec 6, 2012 2:29:50 PM org.apache.hadoop.mapred.JobClient copyAndConfigureFiles
WARNING: No job jar file set.  User classes may not be found. See JobConf(Class) or JobConf#setJar(String).
Dec 6, 2012 2:29:50 PM org.apache.hadoop.mapreduce.lib.input.FileInputFormat listStatus
INFO: Total input paths to process : 1
Dec 6, 2012 2:29:50 PM org.apache.hadoop.mapred.Task done
INFO: Task:attempt_local_0228_m_000000_0 is done. And is in the process of commiting
Dec 6, 2012 2:29:50 PM org.apache.hadoop.mapred.LocalJobRunner$Job statusUpdate
INFO: 
Dec 6, 2012 2:29:50 PM org.apache.hadoop.mapred.Task commit
INFO: Task attempt_local_0228_m_000000_0 is allowed to commit now
Dec 6, 2012 2:29:50 PM org.apache.hadoop.mapreduce.lib.output.FileOutputCommitter commitTask
INFO: Saved output of task 'attempt_local_0228_m_000000_0' to file:/tmp/mahout-LocalSSVDSolverDenseTest-5454440298280925184/svd-proc/SSVD-out/V
Dec 6, 2012 2:29:50 PM org.apache.hadoop.mapred.Task done
INFO: Task:attempt_local_0227_m_000000_0 is done. And is in the process of commiting
Dec 6, 2012 2:29:50 PM org.apache.hadoop.mapred.LocalJobRunner$Job statusUpdate
INFO: 
Dec 6, 2012 2:29:50 PM org.apache.hadoop.mapred.Task commit
INFO: Task attempt_local_0227_m_000000_0 is allowed to commit now
Dec 6, 2012 2:29:50 PM org.apache.hadoop.mapreduce.lib.output.FileOutputCommitter commitTask
INFO: Saved output of task 'attempt_local_0227_m_000000_0' to file:/tmp/mahout-LocalSSVDSolverDenseTest-5454440298280925184/svd-proc/SSVD-out/U
Dec 6, 2012 2:29:53 PM org.apache.hadoop.mapred.LocalJobRunner$Job statusUpdate
INFO: 
Dec 6, 2012 2:29:53 PM org.apache.hadoop.mapred.Task sendDone
INFO: Task 'attempt_local_0227_m_000000_0' done.
Dec 6, 2012 2:29:53 PM org.apache.hadoop.mapred.LocalJobRunner$Job statusUpdate
INFO: 
Dec 6, 2012 2:29:53 PM org.apache.hadoop.mapred.Task sendDone
INFO: Task 'attempt_local_0228_m_000000_0' done.
--SSVD solver singular values:
svs: 9.998872  3.997452  0.976556  0.100000  0.100000  0.100000  0.100000  0.100000  0.100000  0.100000  0.100000  0.100000  0.100000  
