-------------------------------------------------------------------------------
Test set: org.apache.mahout.math.stats.OnlineAucTest
-------------------------------------------------------------------------------
Tests run: 3, Failures: 0, Errors: 0, Skipped: 0, Time elapsed: 17.199 sec
