Dec 5, 2012 10:10:15 PM org.slf4j.impl.JCLLoggerAdapter info
INFO: Input integers: 1499610
Dec 5, 2012 10:10:15 PM org.slf4j.impl.JCLLoggerAdapter info
INFO: Input data Size: 5.99844
Dec 5, 2012 10:10:15 PM org.slf4j.impl.JCLLoggerAdapter info
INFO: Nodes in Tree: 146713
Dec 5, 2012 10:10:15 PM org.slf4j.impl.JCLLoggerAdapter info
INFO: Size of Tree: 2.93426
Dec 5, 2012 10:10:17 PM org.slf4j.impl.JCLLoggerAdapter info
INFO: Number of transaction integers: 566927
Dec 5, 2012 10:10:17 PM org.slf4j.impl.JCLLoggerAdapter info
INFO: Size of Transactions: 3.145692
Dec 5, 2012 10:10:17 PM org.slf4j.impl.JCLLoggerAdapter info
INFO: Number of Transactions: 109748
