-------------------------------------------------------------------------------
Test set: org.apache.mahout.classifier.naivebayes.training.WeightsMapperTest
-------------------------------------------------------------------------------
Tests run: 1, Failures: 0, Errors: 0, Skipped: 0, Time elapsed: 0.011 sec
