Dec 6, 2012 2:17:49 PM org.slf4j.impl.JCLLoggerAdapter info
INFO: Processed 2 users
Dec 6, 2012 2:17:49 PM org.slf4j.impl.JCLLoggerAdapter info
INFO: Processed 2 users
Dec 6, 2012 2:17:49 PM org.slf4j.impl.JCLLoggerAdapter info
INFO: Processed 4 users
Dec 6, 2012 2:17:49 PM org.slf4j.impl.JCLLoggerAdapter info
INFO: Added refreshable: GenericDataModel[users:1,2,3...]
Dec 6, 2012 2:17:49 PM org.slf4j.impl.JCLLoggerAdapter info
INFO: Refreshed: [GenericDataModel[users:1,2,3...]]
Dec 6, 2012 2:17:49 PM org.slf4j.impl.JCLLoggerAdapter info
INFO: Processed 2 users
Dec 6, 2012 2:17:49 PM org.slf4j.impl.JCLLoggerAdapter info
INFO: Processed 2 users
Dec 6, 2012 2:17:49 PM org.slf4j.impl.JCLLoggerAdapter info
INFO: Processed 2 users
Dec 6, 2012 2:17:49 PM org.slf4j.impl.JCLLoggerAdapter info
INFO: Processed 2 users
Dec 6, 2012 2:17:49 PM org.slf4j.impl.JCLLoggerAdapter info
INFO: Processed 2 users
Dec 6, 2012 2:17:49 PM org.slf4j.impl.JCLLoggerAdapter info
INFO: Processed 2 users
Dec 6, 2012 2:17:49 PM org.slf4j.impl.JCLLoggerAdapter info
INFO: Processed 2 users
Dec 6, 2012 2:17:50 PM org.slf4j.impl.JCLLoggerAdapter info
INFO: Processed 2 users
Dec 6, 2012 2:17:50 PM org.slf4j.impl.JCLLoggerAdapter info
INFO: Processed 2 users
Dec 6, 2012 2:17:50 PM org.slf4j.impl.JCLLoggerAdapter info
INFO: Processed 2 users
Dec 6, 2012 2:17:50 PM org.slf4j.impl.JCLLoggerAdapter info
INFO: Processed 2 users
Dec 6, 2012 2:17:50 PM org.slf4j.impl.JCLLoggerAdapter info
INFO: Processed 3 users
Dec 6, 2012 2:17:50 PM org.slf4j.impl.JCLLoggerAdapter info
INFO: Processed 3 users
Dec 6, 2012 2:17:50 PM org.slf4j.impl.JCLLoggerAdapter info
INFO: Processed 3 users
