Dec 6, 2012 2:18:10 PM org.slf4j.impl.JCLLoggerAdapter info
INFO: Processed 3 users
Dec 6, 2012 2:18:10 PM org.slf4j.impl.JCLLoggerAdapter info
INFO: Added refreshable: org.apache.mahout.cf.taste.impl.recommender.MockRecommender@aeaea6
Dec 6, 2012 2:18:10 PM org.slf4j.impl.JCLLoggerAdapter info
INFO: Refreshed: [org.apache.mahout.cf.taste.impl.recommender.MockRecommender@aeaea6]
Dec 6, 2012 2:18:10 PM org.slf4j.impl.JCLLoggerAdapter info
INFO: Added refreshable: org.apache.mahout.cf.taste.impl.recommender.MockRecommender@aeaea6
Dec 6, 2012 2:18:10 PM org.slf4j.impl.JCLLoggerAdapter info
INFO: Refreshed: [org.apache.mahout.cf.taste.impl.recommender.MockRecommender@aeaea6]
Dec 6, 2012 2:18:10 PM org.slf4j.impl.JCLLoggerAdapter info
INFO: Added refreshable: org.apache.mahout.cf.taste.impl.recommender.MockRecommender@aeaea6
Dec 6, 2012 2:18:10 PM org.slf4j.impl.JCLLoggerAdapter info
INFO: Refreshed: [org.apache.mahout.cf.taste.impl.recommender.MockRecommender@aeaea6]
