VL-0{n=5 c=[4.200, 4.200] r=[0.748, 0.748]}
VL-1{n=4 c=[1.500, 1.500] r=[0.500, 0.500]}
VL-2{n=0 c=[-1.000, -1.000] r=[]}
VL-0{n=5 c=[4.200, 4.200] r=[0.748, 0.748]}
VL-1{n=4 c=[1.500, 1.500] r=[0.500, 0.500]}
VL-2{n=0 c=[-1.000, -1.000] r=[]}
Prior
CL-0{n=0 c=[1.000, 1.000] r=[]}
CL-1{n=0 c=[] r=[]}
CL-2{n=0 c=[-1.000, -1.000] r=[]}
Classifier-1
VL-2{n=0 c=[-1.000, -1.000] r=[]}
CL-0{n=9 c=[3.000, 3.000] r=[1.491, 1.491]}
VL-1{n=0 c=[] r=[]}
Classifier-2
VL-2{n=0 c=[-1.000, -1.000] r=[]}
CL-0{n=6 c=[3.833, 3.833] r=[1.067, 1.067]}
CL-1{n=3 c=[1.333, 1.333] r=[0.471, 0.471]}
Classifier-3
VL-2{n=0 c=[-1.000, -1.000] r=[]}
CL-0{n=5 c=[4.200, 4.200] r=[0.748, 0.748]}
CL-1{n=4 c=[1.500, 1.500] r=[0.500, 0.500]}
Classifier-4
VL-2{n=0 c=[-1.000, -1.000] r=[]}
VL-0{n=5 c=[4.200, 4.200] r=[0.748, 0.748]}
VL-1{n=4 c=[1.500, 1.500] r=[0.500, 0.500]}
Prior
CL-0{n=0 c=[1.000, 1.000] r=[]}
CL-1{n=0 c=[] r=[]}
CL-2{n=0 c=[-1.000, -1.000] r=[]}
Cluster Iterator running iteration 1 over priorPath: file:/tmp/mahout-TestClusterClassifier-3800063516023530496/prior/priorClassifier
Dec 5, 2012 10:06:33 PM org.apache.hadoop.mapred.JobClient copyAndConfigureFiles
WARNING: Use GenericOptionsParser for parsing the arguments. Applications should implement Tool for the same.
Dec 5, 2012 10:06:33 PM org.apache.hadoop.mapred.JobClient copyAndConfigureFiles
WARNING: No job jar file set.  User classes may not be found. See JobConf(Class) or JobConf#setJar(String).
Dec 5, 2012 10:06:33 PM org.apache.hadoop.mapreduce.lib.input.FileInputFormat listStatus
INFO: Total input paths to process : 1
Dec 5, 2012 10:06:33 PM org.apache.hadoop.mapred.JobClient monitorAndPrintJob
INFO: Running job: job_local_0080
Dec 5, 2012 10:06:33 PM org.apache.hadoop.mapred.MapTask$MapOutputBuffer <init>
INFO: io.sort.mb = 100
Dec 5, 2012 10:06:33 PM org.apache.hadoop.mapred.MapTask$MapOutputBuffer <init>
INFO: data buffer = 79691776/99614720
Dec 5, 2012 10:06:33 PM org.apache.hadoop.mapred.MapTask$MapOutputBuffer <init>
INFO: record buffer = 262144/327680
Dec 5, 2012 10:06:33 PM org.apache.hadoop.mapred.MapTask$MapOutputBuffer flush
INFO: Starting flush of map output
Dec 5, 2012 10:06:33 PM org.apache.hadoop.mapred.MapTask$MapOutputBuffer sortAndSpill
INFO: Finished spill 0
Dec 5, 2012 10:06:33 PM org.apache.hadoop.mapred.Task done
INFO: Task:attempt_local_0080_m_000000_0 is done. And is in the process of commiting
Dec 5, 2012 10:06:34 PM org.apache.hadoop.mapred.JobClient monitorAndPrintJob
INFO:  map 0% reduce 0%
Dec 5, 2012 10:06:36 PM org.apache.hadoop.mapred.LocalJobRunner$Job statusUpdate
INFO: 
Dec 5, 2012 10:06:36 PM org.apache.hadoop.mapred.Task sendDone
INFO: Task 'attempt_local_0080_m_000000_0' done.
Dec 5, 2012 10:06:36 PM org.apache.hadoop.mapred.JobClient monitorAndPrintJob
INFO:  map 100% reduce 0%
Dec 5, 2012 10:06:37 PM org.apache.hadoop.mapred.LocalJobRunner$Job statusUpdate
INFO: 
Dec 5, 2012 10:06:37 PM org.apache.hadoop.mapred.Merger$MergeQueue merge
INFO: Merging 1 sorted segments
Dec 5, 2012 10:06:37 PM org.apache.hadoop.mapred.Merger$MergeQueue merge
INFO: Down to the last merge-pass, with 1 segments left of total size: 533 bytes
Dec 5, 2012 10:06:37 PM org.apache.hadoop.mapred.LocalJobRunner$Job statusUpdate
INFO: 
Dec 5, 2012 10:06:37 PM org.apache.hadoop.mapred.Task done
INFO: Task:attempt_local_0080_r_000000_0 is done. And is in the process of commiting
Dec 5, 2012 10:06:37 PM org.apache.hadoop.mapred.LocalJobRunner$Job statusUpdate
INFO: 
Dec 5, 2012 10:06:37 PM org.apache.hadoop.mapred.Task commit
INFO: Task attempt_local_0080_r_000000_0 is allowed to commit now
Dec 5, 2012 10:06:37 PM org.apache.hadoop.mapreduce.lib.output.FileOutputCommitter commitTask
INFO: Saved output of task 'attempt_local_0080_r_000000_0' to file:/tmp/mahout-TestClusterClassifier-3800063516023530496/output/clusters-1
Dec 5, 2012 10:06:40 PM org.apache.hadoop.mapred.LocalJobRunner$Job statusUpdate
INFO: reduce > reduce
Dec 5, 2012 10:06:40 PM org.apache.hadoop.mapred.Task sendDone
INFO: Task 'attempt_local_0080_r_000000_0' done.
Dec 5, 2012 10:06:41 PM org.apache.hadoop.mapred.JobClient monitorAndPrintJob
INFO:  map 100% reduce 100%
Dec 5, 2012 10:06:41 PM org.apache.hadoop.mapred.JobClient monitorAndPrintJob
INFO: Job complete: job_local_0080
Dec 5, 2012 10:06:41 PM org.apache.hadoop.mapred.Counters log
INFO: Counters: 16
Dec 5, 2012 10:06:41 PM org.apache.hadoop.mapred.Counters log
INFO:   File Output Format Counters 
Dec 5, 2012 10:06:41 PM org.apache.hadoop.mapred.Counters log
INFO:     Bytes Written=657
Dec 5, 2012 10:06:41 PM org.apache.hadoop.mapred.Counters log
INFO:   FileSystemCounters
Dec 5, 2012 10:06:41 PM org.apache.hadoop.mapred.Counters log
INFO:     FILE_BYTES_READ=4118708
Dec 5, 2012 10:06:41 PM org.apache.hadoop.mapred.Counters log
INFO:     FILE_BYTES_WRITTEN=7303081
Dec 5, 2012 10:06:41 PM org.apache.hadoop.mapred.Counters log
INFO:   File Input Format Counters 
Dec 5, 2012 10:06:41 PM org.apache.hadoop.mapred.Counters log
INFO:     Bytes Read=443
Dec 5, 2012 10:06:41 PM org.apache.hadoop.mapred.Counters log
INFO:   Map-Reduce Framework
Dec 5, 2012 10:06:41 PM org.apache.hadoop.mapred.Counters log
INFO:     Reduce input groups=3
Dec 5, 2012 10:06:41 PM org.apache.hadoop.mapred.Counters log
INFO:     Map output materialized bytes=537
Dec 5, 2012 10:06:41 PM org.apache.hadoop.mapred.Counters log
INFO:     Combine output records=0
Dec 5, 2012 10:06:41 PM org.apache.hadoop.mapred.Counters log
INFO:     Map input records=9
Dec 5, 2012 10:06:41 PM org.apache.hadoop.mapred.Counters log
INFO:     Reduce shuffle bytes=0
Dec 5, 2012 10:06:41 PM org.apache.hadoop.mapred.Counters log
INFO:     Reduce output records=3
Dec 5, 2012 10:06:41 PM org.apache.hadoop.mapred.Counters log
INFO:     Spilled Records=6
Dec 5, 2012 10:06:41 PM org.apache.hadoop.mapred.Counters log
INFO:     Map output bytes=522
Dec 5, 2012 10:06:41 PM org.apache.hadoop.mapred.Counters log
INFO:     Combine input records=0
Dec 5, 2012 10:06:41 PM org.apache.hadoop.mapred.Counters log
INFO:     Map output records=3
Dec 5, 2012 10:06:41 PM org.apache.hadoop.mapred.Counters log
INFO:     SPLIT_RAW_BYTES=136
Dec 5, 2012 10:06:41 PM org.apache.hadoop.mapred.Counters log
INFO:     Reduce input records=3
Cluster Iterator running iteration 2 over priorPath: file:/tmp/mahout-TestClusterClassifier-3800063516023530496/output/clusters-1
Dec 5, 2012 10:06:41 PM org.apache.hadoop.mapred.JobClient copyAndConfigureFiles
WARNING: Use GenericOptionsParser for parsing the arguments. Applications should implement Tool for the same.
Dec 5, 2012 10:06:41 PM org.apache.hadoop.mapred.JobClient copyAndConfigureFiles
WARNING: No job jar file set.  User classes may not be found. See JobConf(Class) or JobConf#setJar(String).
Dec 5, 2012 10:06:41 PM org.apache.hadoop.mapreduce.lib.input.FileInputFormat listStatus
INFO: Total input paths to process : 1
Dec 5, 2012 10:06:41 PM org.apache.hadoop.mapred.JobClient monitorAndPrintJob
INFO: Running job: job_local_0081
Dec 5, 2012 10:06:41 PM org.apache.hadoop.mapred.MapTask$MapOutputBuffer <init>
INFO: io.sort.mb = 100
Dec 5, 2012 10:06:41 PM org.apache.hadoop.mapred.MapTask$MapOutputBuffer <init>
INFO: data buffer = 79691776/99614720
Dec 5, 2012 10:06:41 PM org.apache.hadoop.mapred.MapTask$MapOutputBuffer <init>
INFO: record buffer = 262144/327680
Dec 5, 2012 10:06:42 PM org.apache.hadoop.mapred.MapTask$MapOutputBuffer flush
INFO: Starting flush of map output
Dec 5, 2012 10:06:42 PM org.apache.hadoop.mapred.MapTask$MapOutputBuffer sortAndSpill
INFO: Finished spill 0
Dec 5, 2012 10:06:42 PM org.apache.hadoop.mapred.Task done
INFO: Task:attempt_local_0081_m_000000_0 is done. And is in the process of commiting
Dec 5, 2012 10:06:42 PM org.apache.hadoop.mapred.JobClient monitorAndPrintJob
INFO:  map 0% reduce 0%
Dec 5, 2012 10:06:45 PM org.apache.hadoop.mapred.LocalJobRunner$Job statusUpdate
INFO: 
Dec 5, 2012 10:06:45 PM org.apache.hadoop.mapred.Task sendDone
INFO: Task 'attempt_local_0081_m_000000_0' done.
Dec 5, 2012 10:06:45 PM org.apache.hadoop.mapred.LocalJobRunner$Job statusUpdate
INFO: 
Dec 5, 2012 10:06:45 PM org.apache.hadoop.mapred.Merger$MergeQueue merge
INFO: Merging 1 sorted segments
Dec 5, 2012 10:06:45 PM org.apache.hadoop.mapred.Merger$MergeQueue merge
INFO: Down to the last merge-pass, with 1 segments left of total size: 587 bytes
Dec 5, 2012 10:06:45 PM org.apache.hadoop.mapred.LocalJobRunner$Job statusUpdate
INFO: 
Dec 5, 2012 10:06:45 PM org.apache.hadoop.mapred.Task done
INFO: Task:attempt_local_0081_r_000000_0 is done. And is in the process of commiting
Dec 5, 2012 10:06:45 PM org.apache.hadoop.mapred.LocalJobRunner$Job statusUpdate
INFO: 
Dec 5, 2012 10:06:45 PM org.apache.hadoop.mapred.Task commit
INFO: Task attempt_local_0081_r_000000_0 is allowed to commit now
Dec 5, 2012 10:06:45 PM org.apache.hadoop.mapreduce.lib.output.FileOutputCommitter commitTask
INFO: Saved output of task 'attempt_local_0081_r_000000_0' to file:/tmp/mahout-TestClusterClassifier-3800063516023530496/output/clusters-2
Dec 5, 2012 10:06:46 PM org.apache.hadoop.mapred.JobClient monitorAndPrintJob
INFO:  map 100% reduce 0%
Dec 5, 2012 10:06:48 PM org.apache.hadoop.mapred.LocalJobRunner$Job statusUpdate
INFO: reduce > reduce
Dec 5, 2012 10:06:48 PM org.apache.hadoop.mapred.Task sendDone
INFO: Task 'attempt_local_0081_r_000000_0' done.
Dec 5, 2012 10:06:49 PM org.apache.hadoop.mapred.JobClient monitorAndPrintJob
INFO:  map 100% reduce 100%
Dec 5, 2012 10:06:49 PM org.apache.hadoop.mapred.JobClient monitorAndPrintJob
INFO: Job complete: job_local_0081
Dec 5, 2012 10:06:49 PM org.apache.hadoop.mapred.Counters log
INFO: Counters: 16
Dec 5, 2012 10:06:49 PM org.apache.hadoop.mapred.Counters log
INFO:   File Output Format Counters 
Dec 5, 2012 10:06:49 PM org.apache.hadoop.mapred.Counters log
INFO:     Bytes Written=693
Dec 5, 2012 10:06:49 PM org.apache.hadoop.mapred.Counters log
INFO:   FileSystemCounters
Dec 5, 2012 10:06:49 PM org.apache.hadoop.mapred.Counters log
INFO:     FILE_BYTES_READ=4126100
Dec 5, 2012 10:06:49 PM org.apache.hadoop.mapred.Counters log
INFO:     FILE_BYTES_WRITTEN=7371431
Dec 5, 2012 10:06:49 PM org.apache.hadoop.mapred.Counters log
INFO:   File Input Format Counters 
Dec 5, 2012 10:06:49 PM org.apache.hadoop.mapred.Counters log
INFO:     Bytes Read=443
Dec 5, 2012 10:06:49 PM org.apache.hadoop.mapred.Counters log
INFO:   Map-Reduce Framework
Dec 5, 2012 10:06:49 PM org.apache.hadoop.mapred.Counters log
INFO:     Reduce input groups=3
Dec 5, 2012 10:06:49 PM org.apache.hadoop.mapred.Counters log
INFO:     Map output materialized bytes=591
Dec 5, 2012 10:06:49 PM org.apache.hadoop.mapred.Counters log
INFO:     Combine output records=0
Dec 5, 2012 10:06:49 PM org.apache.hadoop.mapred.Counters log
INFO:     Map input records=9
Dec 5, 2012 10:06:49 PM org.apache.hadoop.mapred.Counters log
INFO:     Reduce shuffle bytes=0
Dec 5, 2012 10:06:49 PM org.apache.hadoop.mapred.Counters log
INFO:     Reduce output records=3
Dec 5, 2012 10:06:49 PM org.apache.hadoop.mapred.Counters log
INFO:     Spilled Records=6
Dec 5, 2012 10:06:49 PM org.apache.hadoop.mapred.Counters log
INFO:     Map output bytes=576
Dec 5, 2012 10:06:49 PM org.apache.hadoop.mapred.Counters log
INFO:     Combine input records=0
Dec 5, 2012 10:06:49 PM org.apache.hadoop.mapred.Counters log
INFO:     Map output records=3
Dec 5, 2012 10:06:49 PM org.apache.hadoop.mapred.Counters log
INFO:     SPLIT_RAW_BYTES=136
Dec 5, 2012 10:06:49 PM org.apache.hadoop.mapred.Counters log
INFO:     Reduce input records=3
Cluster Iterator running iteration 3 over priorPath: file:/tmp/mahout-TestClusterClassifier-3800063516023530496/output/clusters-2
Dec 5, 2012 10:06:50 PM org.apache.hadoop.mapred.JobClient copyAndConfigureFiles
WARNING: Use GenericOptionsParser for parsing the arguments. Applications should implement Tool for the same.
Dec 5, 2012 10:06:50 PM org.apache.hadoop.mapred.JobClient copyAndConfigureFiles
WARNING: No job jar file set.  User classes may not be found. See JobConf(Class) or JobConf#setJar(String).
Dec 5, 2012 10:06:50 PM org.apache.hadoop.mapreduce.lib.input.FileInputFormat listStatus
INFO: Total input paths to process : 1
Dec 5, 2012 10:06:50 PM org.apache.hadoop.mapred.JobClient monitorAndPrintJob
INFO: Running job: job_local_0082
Dec 5, 2012 10:06:50 PM org.apache.hadoop.mapred.MapTask$MapOutputBuffer <init>
INFO: io.sort.mb = 100
Dec 5, 2012 10:06:50 PM org.apache.hadoop.mapred.MapTask$MapOutputBuffer <init>
INFO: data buffer = 79691776/99614720
Dec 5, 2012 10:06:50 PM org.apache.hadoop.mapred.MapTask$MapOutputBuffer <init>
INFO: record buffer = 262144/327680
Dec 5, 2012 10:06:50 PM org.apache.hadoop.mapred.MapTask$MapOutputBuffer flush
INFO: Starting flush of map output
Dec 5, 2012 10:06:50 PM org.apache.hadoop.mapred.MapTask$MapOutputBuffer sortAndSpill
INFO: Finished spill 0
Dec 5, 2012 10:06:50 PM org.apache.hadoop.mapred.Task done
INFO: Task:attempt_local_0082_m_000000_0 is done. And is in the process of commiting
Dec 5, 2012 10:06:51 PM org.apache.hadoop.mapred.JobClient monitorAndPrintJob
INFO:  map 0% reduce 0%
Dec 5, 2012 10:06:53 PM org.apache.hadoop.mapred.LocalJobRunner$Job statusUpdate
INFO: 
Dec 5, 2012 10:06:53 PM org.apache.hadoop.mapred.Task sendDone
INFO: Task 'attempt_local_0082_m_000000_0' done.
Dec 5, 2012 10:06:53 PM org.apache.hadoop.mapred.JobClient monitorAndPrintJob
INFO:  map 100% reduce 0%
Dec 5, 2012 10:06:53 PM org.apache.hadoop.mapred.LocalJobRunner$Job statusUpdate
INFO: 
Dec 5, 2012 10:06:53 PM org.apache.hadoop.mapred.Merger$MergeQueue merge
INFO: Merging 1 sorted segments
Dec 5, 2012 10:06:53 PM org.apache.hadoop.mapred.Merger$MergeQueue merge
INFO: Down to the last merge-pass, with 1 segments left of total size: 623 bytes
Dec 5, 2012 10:06:53 PM org.apache.hadoop.mapred.LocalJobRunner$Job statusUpdate
INFO: 
Dec 5, 2012 10:06:53 PM org.apache.hadoop.mapred.Task done
INFO: Task:attempt_local_0082_r_000000_0 is done. And is in the process of commiting
Dec 5, 2012 10:06:53 PM org.apache.hadoop.mapred.LocalJobRunner$Job statusUpdate
INFO: 
Dec 5, 2012 10:06:53 PM org.apache.hadoop.mapred.Task commit
INFO: Task attempt_local_0082_r_000000_0 is allowed to commit now
Dec 5, 2012 10:06:53 PM org.apache.hadoop.mapreduce.lib.output.FileOutputCommitter commitTask
INFO: Saved output of task 'attempt_local_0082_r_000000_0' to file:/tmp/mahout-TestClusterClassifier-3800063516023530496/output/clusters-3
Dec 5, 2012 10:06:56 PM org.apache.hadoop.mapred.LocalJobRunner$Job statusUpdate
INFO: reduce > reduce
Dec 5, 2012 10:06:56 PM org.apache.hadoop.mapred.Task sendDone
INFO: Task 'attempt_local_0082_r_000000_0' done.
Dec 5, 2012 10:06:57 PM org.apache.hadoop.mapred.JobClient monitorAndPrintJob
INFO:  map 100% reduce 100%
Dec 5, 2012 10:06:57 PM org.apache.hadoop.mapred.JobClient monitorAndPrintJob
INFO: Job complete: job_local_0082
Dec 5, 2012 10:06:57 PM org.apache.hadoop.mapred.Counters log
INFO: Counters: 16
Dec 5, 2012 10:06:57 PM org.apache.hadoop.mapred.Counters log
INFO:   File Output Format Counters 
Dec 5, 2012 10:06:57 PM org.apache.hadoop.mapred.Counters log
INFO:     Bytes Written=693
Dec 5, 2012 10:06:57 PM org.apache.hadoop.mapred.Counters log
INFO:   FileSystemCounters
Dec 5, 2012 10:06:57 PM org.apache.hadoop.mapred.Counters log
INFO:     FILE_BYTES_READ=4133534
Dec 5, 2012 10:06:57 PM org.apache.hadoop.mapred.Counters log
INFO:     FILE_BYTES_WRITTEN=7439889
Dec 5, 2012 10:06:57 PM org.apache.hadoop.mapred.Counters log
INFO:   File Input Format Counters 
Dec 5, 2012 10:06:57 PM org.apache.hadoop.mapred.Counters log
INFO:     Bytes Read=443
Dec 5, 2012 10:06:57 PM org.apache.hadoop.mapred.Counters log
INFO:   Map-Reduce Framework
Dec 5, 2012 10:06:57 PM org.apache.hadoop.mapred.Counters log
INFO:     Reduce input groups=3
Dec 5, 2012 10:06:57 PM org.apache.hadoop.mapred.Counters log
INFO:     Map output materialized bytes=627
Dec 5, 2012 10:06:57 PM org.apache.hadoop.mapred.Counters log
INFO:     Combine output records=0
Dec 5, 2012 10:06:57 PM org.apache.hadoop.mapred.Counters log
INFO:     Map input records=9
Dec 5, 2012 10:06:57 PM org.apache.hadoop.mapred.Counters log
INFO:     Reduce shuffle bytes=0
Dec 5, 2012 10:06:57 PM org.apache.hadoop.mapred.Counters log
INFO:     Reduce output records=3
Dec 5, 2012 10:06:57 PM org.apache.hadoop.mapred.Counters log
INFO:     Spilled Records=6
Dec 5, 2012 10:06:57 PM org.apache.hadoop.mapred.Counters log
Cluster Iterator running iteration 4 over priorPath: file:/tmp/mahout-TestClusterClassifier-3800063516023530496/output/clusters-3
INFO:     Map output bytes=612
Dec 5, 2012 10:06:57 PM org.apache.hadoop.mapred.Counters log
INFO:     Combine input records=0
Dec 5, 2012 10:06:57 PM org.apache.hadoop.mapred.Counters log
INFO:     Map output records=3
Dec 5, 2012 10:06:57 PM org.apache.hadoop.mapred.Counters log
INFO:     SPLIT_RAW_BYTES=136
Dec 5, 2012 10:06:57 PM org.apache.hadoop.mapred.Counters log
INFO:     Reduce input records=3
Dec 5, 2012 10:06:57 PM org.apache.hadoop.mapred.JobClient copyAndConfigureFiles
WARNING: Use GenericOptionsParser for parsing the arguments. Applications should implement Tool for the same.
Dec 5, 2012 10:06:57 PM org.apache.hadoop.mapred.JobClient copyAndConfigureFiles
WARNING: No job jar file set.  User classes may not be found. See JobConf(Class) or JobConf#setJar(String).
Dec 5, 2012 10:06:57 PM org.apache.hadoop.mapreduce.lib.input.FileInputFormat listStatus
INFO: Total input paths to process : 1
Dec 5, 2012 10:06:58 PM org.apache.hadoop.mapred.JobClient monitorAndPrintJob
INFO: Running job: job_local_0083
Dec 5, 2012 10:06:58 PM org.apache.hadoop.mapred.MapTask$MapOutputBuffer <init>
INFO: io.sort.mb = 100
Dec 5, 2012 10:06:58 PM org.apache.hadoop.mapred.MapTask$MapOutputBuffer <init>
INFO: data buffer = 79691776/99614720
Dec 5, 2012 10:06:58 PM org.apache.hadoop.mapred.MapTask$MapOutputBuffer <init>
INFO: record buffer = 262144/327680
Dec 5, 2012 10:06:58 PM org.apache.hadoop.mapred.MapTask$MapOutputBuffer flush
INFO: Starting flush of map output
Dec 5, 2012 10:06:58 PM org.apache.hadoop.mapred.MapTask$MapOutputBuffer sortAndSpill
INFO: Finished spill 0
Dec 5, 2012 10:06:58 PM org.apache.hadoop.mapred.Task done
INFO: Task:attempt_local_0083_m_000000_0 is done. And is in the process of commiting
Dec 5, 2012 10:06:59 PM org.apache.hadoop.mapred.JobClient monitorAndPrintJob
INFO:  map 0% reduce 0%
Dec 5, 2012 10:07:01 PM org.apache.hadoop.mapred.LocalJobRunner$Job statusUpdate
INFO: 
Dec 5, 2012 10:07:01 PM org.apache.hadoop.mapred.Task sendDone
INFO: Task 'attempt_local_0083_m_000000_0' done.
Dec 5, 2012 10:07:01 PM org.apache.hadoop.mapred.LocalJobRunner$Job statusUpdate
INFO: 
Dec 5, 2012 10:07:01 PM org.apache.hadoop.mapred.Merger$MergeQueue merge
INFO: Merging 1 sorted segments
Dec 5, 2012 10:07:01 PM org.apache.hadoop.mapred.Merger$MergeQueue merge
INFO: Down to the last merge-pass, with 1 segments left of total size: 623 bytes
Dec 5, 2012 10:07:01 PM org.apache.hadoop.mapred.LocalJobRunner$Job statusUpdate
INFO: 
Dec 5, 2012 10:07:01 PM org.apache.hadoop.mapred.Task done
INFO: Task:attempt_local_0083_r_000000_0 is done. And is in the process of commiting
Dec 5, 2012 10:07:01 PM org.apache.hadoop.mapred.LocalJobRunner$Job statusUpdate
INFO: 
Dec 5, 2012 10:07:01 PM org.apache.hadoop.mapred.Task commit
INFO: Task attempt_local_0083_r_000000_0 is allowed to commit now
Dec 5, 2012 10:07:01 PM org.apache.hadoop.mapreduce.lib.output.FileOutputCommitter commitTask
INFO: Saved output of task 'attempt_local_0083_r_000000_0' to file:/tmp/mahout-TestClusterClassifier-3800063516023530496/output/clusters-4
Dec 5, 2012 10:07:02 PM org.apache.hadoop.mapred.JobClient monitorAndPrintJob
INFO:  map 100% reduce 0%
Dec 5, 2012 10:07:04 PM org.apache.hadoop.mapred.LocalJobRunner$Job statusUpdate
INFO: reduce > reduce
Dec 5, 2012 10:07:04 PM org.apache.hadoop.mapred.Task sendDone
INFO: Task 'attempt_local_0083_r_000000_0' done.
Dec 5, 2012 10:07:04 PM org.apache.hadoop.mapred.JobClient monitorAndPrintJob
INFO:  map 100% reduce 100%
Dec 5, 2012 10:07:04 PM org.apache.hadoop.mapred.JobClient monitorAndPrintJob
INFO: Job complete: job_local_0083
Dec 5, 2012 10:07:04 PM org.apache.hadoop.mapred.Counters log
INFO: Counters: 16
Dec 5, 2012 10:07:04 PM org.apache.hadoop.mapred.Counters log
INFO:   File Output Format Counters 
Dec 5, 2012 10:07:04 PM org.apache.hadoop.mapred.Counters log
INFO:     Bytes Written=693
Dec 5, 2012 10:07:04 PM org.apache.hadoop.mapred.Counters log
INFO:   FileSystemCounters
Dec 5, 2012 10:07:04 PM org.apache.hadoop.mapred.Counters log
INFO:     FILE_BYTES_READ=4141040
Dec 5, 2012 10:07:04 PM org.apache.hadoop.mapred.Counters log
INFO:     FILE_BYTES_WRITTEN=7508343
Dec 5, 2012 10:07:04 PM org.apache.hadoop.mapred.Counters log
INFO:   File Input Format Counters 
Dec 5, 2012 10:07:04 PM org.apache.hadoop.mapred.Counters log
INFO:     Bytes Read=443
Dec 5, 2012 10:07:04 PM org.apache.hadoop.mapred.Counters log
INFO:   Map-Reduce Framework
Dec 5, 2012 10:07:04 PM org.apache.hadoop.mapred.Counters log
INFO:     Reduce input groups=3
Dec 5, 2012 10:07:04 PM org.apache.hadoop.mapred.Counters log
INFO:     Map output materialized bytes=627
Dec 5, 2012 10:07:04 PM org.apache.hadoop.mapred.Counters log
INFO:     Combine output records=0
Dec 5, 2012 10:07:04 PM org.apache.hadoop.mapred.Counters log
INFO:     Map input records=9
Dec 5, 2012 10:07:04 PM org.apache.hadoop.mapred.Counters log
INFO:     Reduce shuffle bytes=0
Dec 5, 2012 10:07:04 PM org.apache.hadoop.mapred.Counters log
INFO:     Reduce output records=3
Dec 5, 2012 10:07:04 PM org.apache.hadoop.mapred.Counters log
INFO:     Spilled Records=6
Dec 5, 2012 10:07:04 PM org.apache.hadoop.mapred.Counters log
INFO:     Map output bytes=612
Dec 5, 2012 10:07:04 PM org.apache.hadoop.mapred.Counters log
INFO:     Combine input records=0
Dec 5, 2012 10:07:04 PM org.apache.hadoop.mapred.Counters log
INFO:     Map output records=3
Dec 5, 2012 10:07:04 PM org.apache.hadoop.mapred.Counters log
INFO:     SPLIT_RAW_BYTES=136
Dec 5, 2012 10:07:04 PM org.apache.hadoop.mapred.Counters log
INFO:     Reduce input records=3
Classifier-1
VL-1{n=0 c=[] r=[]}
VL-2{n=0 c=[-1.000, -1.000] r=[]}
CL-0{n=9 c=[3.000, 3.000] r=[1.491, 1.491]}
Classifier-2
CL-1{n=3 c=[1.333, 1.333] r=[0.471, 0.471]}
VL-2{n=0 c=[-1.000, -1.000] r=[]}
CL-0{n=6 c=[3.833, 3.833] r=[1.067, 1.067]}
Classifier-3
CL-1{n=4 c=[1.500, 1.500] r=[0.500, 0.500]}
VL-2{n=0 c=[-1.000, -1.000] r=[]}
CL-0{n=5 c=[4.200, 4.200] r=[0.748, 0.748]}
Classifier-4
VL-1{n=4 c=[1.500, 1.500] r=[0.500, 0.500]}
VL-2{n=0 c=[-1.000, -1.000] r=[]}
VL-0{n=5 c=[4.200, 4.200] r=[0.748, 0.748]}
