-------------------------------------------------------------------------------
Test set: org.apache.mahout.math.hadoop.TestDistributedRowMatrix
-------------------------------------------------------------------------------
Tests run: 11, Failures: 0, Errors: 0, Skipped: 0, Time elapsed: 80.803 sec
