-------------------------------------------------------------------------------
Test set: org.apache.mahout.vectorizer.collocations.llr.LLRReducerTest
-------------------------------------------------------------------------------
Tests run: 1, Failures: 0, Errors: 0, Skipped: 0, Time elapsed: 0.127 sec
