-------------------------------------------------------------------------------
Test set: org.apache.mahout.classifier.naivebayes.StandardNaiveBayesClassifierTest
-------------------------------------------------------------------------------
Tests run: 1, Failures: 0, Errors: 0, Skipped: 0, Time elapsed: 0.562 sec
