-------------------------------------------------------------------------------
Test set: org.apache.mahout.cf.taste.impl.model.BooleanUserPreferenceArrayTest
-------------------------------------------------------------------------------
Tests run: 6, Failures: 0, Errors: 0, Skipped: 0, Time elapsed: 0.054 sec
