-------------------------------------------------------------------------------
Test set: org.apache.mahout.classifier.df.split.OptIgSplitTest
-------------------------------------------------------------------------------
Tests run: 1, Failures: 0, Errors: 0, Skipped: 0, Time elapsed: 0.86 sec
