-------------------------------------------------------------------------------
Test set: org.apache.mahout.cf.taste.impl.recommender.slopeone.MemoryDiffStorageTest
-------------------------------------------------------------------------------
Tests run: 9, Failures: 0, Errors: 0, Skipped: 0, Time elapsed: 0.131 sec
