Dec 6, 2012 2:25:56 PM org.slf4j.impl.JCLLoggerAdapter info
INFO: Command line arguments: {--endPhase=[2147483647], --input=[file:/tmp/mahout-InformationGainTest-8589671495895122944/input], --startPhase=[0], --tempDir=[file:/tmp/mahout-InformationGainTest-8589671495895122944/tmp]}
Dec 6, 2012 2:25:56 PM org.slf4j.impl.JCLLoggerAdapter info
INFO: Command line arguments: {--endPhase=[2147483647], --input=[file:/tmp/mahout-InformationGainTest-8589671495895122944/input], --output=[file:/tmp/mahout-InformationGainTest-8589671495895122944/tmp/entropy-1354832756100], --source=[value], --startPhase=[0], --tempDir=[file:/tmp/mahout-InformationGainTest-8589671495895122944/tmp]}
Dec 6, 2012 2:25:56 PM org.apache.hadoop.mapred.JobClient copyAndConfigureFiles
WARNING: No job jar file set.  User classes may not be found. See JobConf(Class) or JobConf#setJar(String).
Dec 6, 2012 2:25:56 PM org.apache.hadoop.mapreduce.lib.input.FileInputFormat listStatus
INFO: Total input paths to process : 1
Dec 6, 2012 2:25:56 PM org.apache.hadoop.mapred.JobClient monitorAndPrintJob
INFO: Running job: job_local_0198
Dec 6, 2012 2:25:56 PM org.apache.hadoop.mapred.MapTask$MapOutputBuffer <init>
INFO: io.sort.mb = 100
Dec 6, 2012 2:25:56 PM org.apache.hadoop.mapred.MapTask$MapOutputBuffer <init>
INFO: data buffer = 79691776/99614720
Dec 6, 2012 2:25:56 PM org.apache.hadoop.mapred.MapTask$MapOutputBuffer <init>
INFO: record buffer = 262144/327680
Dec 6, 2012 2:25:56 PM org.apache.hadoop.mapred.MapTask$MapOutputBuffer flush
INFO: Starting flush of map output
Dec 6, 2012 2:25:56 PM org.apache.hadoop.mapred.MapTask$MapOutputBuffer sortAndSpill
INFO: Finished spill 0
Dec 6, 2012 2:25:56 PM org.apache.hadoop.mapred.Task done
INFO: Task:attempt_local_0198_m_000000_0 is done. And is in the process of commiting
Dec 6, 2012 2:25:57 PM org.apache.hadoop.mapred.JobClient monitorAndPrintJob
INFO:  map 0% reduce 0%
Dec 6, 2012 2:25:59 PM org.apache.hadoop.mapred.LocalJobRunner$Job statusUpdate
INFO: 
Dec 6, 2012 2:25:59 PM org.apache.hadoop.mapred.Task sendDone
INFO: Task 'attempt_local_0198_m_000000_0' done.
Dec 6, 2012 2:25:59 PM org.apache.hadoop.mapred.LocalJobRunner$Job statusUpdate
INFO: 
Dec 6, 2012 2:25:59 PM org.apache.hadoop.mapred.Merger$MergeQueue merge
INFO: Merging 1 sorted segments
Dec 6, 2012 2:25:59 PM org.apache.hadoop.mapred.Merger$MergeQueue merge
INFO: Down to the last merge-pass, with 1 segments left of total size: 23 bytes
Dec 6, 2012 2:25:59 PM org.apache.hadoop.mapred.LocalJobRunner$Job statusUpdate
INFO: 
Dec 6, 2012 2:25:59 PM org.apache.hadoop.mapred.Task done
INFO: Task:attempt_local_0198_r_000000_0 is done. And is in the process of commiting
Dec 6, 2012 2:25:59 PM org.apache.hadoop.mapred.LocalJobRunner$Job statusUpdate
INFO: 
Dec 6, 2012 2:25:59 PM org.apache.hadoop.mapred.Task commit
INFO: Task attempt_local_0198_r_000000_0 is allowed to commit now
Dec 6, 2012 2:25:59 PM org.apache.hadoop.mapreduce.lib.output.FileOutputCommitter commitTask
INFO: Saved output of task 'attempt_local_0198_r_000000_0' to file:/tmp/mahout-InformationGainTest-8589671495895122944/tmp/temp-1354832756122
Dec 6, 2012 2:26:00 PM org.apache.hadoop.mapred.JobClient monitorAndPrintJob
INFO:  map 100% reduce 0%
Dec 6, 2012 2:26:02 PM org.apache.hadoop.mapred.LocalJobRunner$Job statusUpdate
INFO: reduce > reduce
Dec 6, 2012 2:26:02 PM org.apache.hadoop.mapred.Task sendDone
INFO: Task 'attempt_local_0198_r_000000_0' done.
Dec 6, 2012 2:26:03 PM org.apache.hadoop.mapred.JobClient monitorAndPrintJob
INFO:  map 100% reduce 100%
Dec 6, 2012 2:26:03 PM org.apache.hadoop.mapred.JobClient monitorAndPrintJob
INFO: Job complete: job_local_0198
Dec 6, 2012 2:26:03 PM org.apache.hadoop.mapred.Counters log
INFO: Counters: 16
Dec 6, 2012 2:26:03 PM org.apache.hadoop.mapred.Counters log
INFO:   File Output Format Counters 
Dec 6, 2012 2:26:03 PM org.apache.hadoop.mapred.Counters log
INFO:     Bytes Written=127
Dec 6, 2012 2:26:03 PM org.apache.hadoop.mapred.Counters log
INFO:   FileSystemCounters
Dec 6, 2012 2:26:03 PM org.apache.hadoop.mapred.Counters log
INFO:     FILE_BYTES_READ=73159917
Dec 6, 2012 2:26:03 PM org.apache.hadoop.mapred.Counters log
INFO:     FILE_BYTES_WRITTEN=51093103
Dec 6, 2012 2:26:03 PM org.apache.hadoop.mapred.Counters log
INFO:   File Input Format Counters 
Dec 6, 2012 2:26:03 PM org.apache.hadoop.mapred.Counters log
INFO:     Bytes Read=224
Dec 6, 2012 2:26:03 PM org.apache.hadoop.mapred.Counters log
INFO:   Map-Reduce Framework
Dec 6, 2012 2:26:03 PM org.apache.hadoop.mapred.Counters log
INFO:     Reduce input groups=2
Dec 6, 2012 2:26:03 PM org.apache.hadoop.mapred.Counters log
INFO:     Map output materialized bytes=27
Dec 6, 2012 2:26:03 PM org.apache.hadoop.mapred.Counters log
INFO:     Combine output records=2
Dec 6, 2012 2:26:03 PM org.apache.hadoop.mapred.Counters log
INFO:     Map input records=8
Dec 6, 2012 2:26:03 PM org.apache.hadoop.mapred.Counters log
INFO:     Reduce shuffle bytes=0
Dec 6, 2012 2:26:03 PM org.apache.hadoop.mapred.Counters log
INFO:     Reduce output records=2
Dec 6, 2012 2:26:03 PM org.apache.hadoop.mapred.Counters log
INFO:     Spilled Records=4
Dec 6, 2012 2:26:03 PM org.apache.hadoop.mapred.Counters log
INFO:     Map output bytes=36
Dec 6, 2012 2:26:03 PM org.apache.hadoop.mapred.Counters log
INFO:     Combine input records=8
Dec 6, 2012 2:26:03 PM org.apache.hadoop.mapred.Counters log
INFO:     Map output records=8
Dec 6, 2012 2:26:03 PM org.apache.hadoop.mapred.Counters log
INFO:     SPLIT_RAW_BYTES=127
Dec 6, 2012 2:26:03 PM org.apache.hadoop.mapred.Counters log
INFO:     Reduce input records=2
Dec 6, 2012 2:26:03 PM org.apache.hadoop.mapred.JobClient copyAndConfigureFiles
WARNING: No job jar file set.  User classes may not be found. See JobConf(Class) or JobConf#setJar(String).
Dec 6, 2012 2:26:03 PM org.apache.hadoop.mapreduce.lib.input.FileInputFormat listStatus
INFO: Total input paths to process : 1
Dec 6, 2012 2:26:03 PM org.apache.hadoop.mapred.JobClient monitorAndPrintJob
INFO: Running job: job_local_0199
Dec 6, 2012 2:26:03 PM org.apache.hadoop.mapred.MapTask$MapOutputBuffer <init>
INFO: io.sort.mb = 100
Dec 6, 2012 2:26:03 PM org.apache.hadoop.mapred.MapTask$MapOutputBuffer <init>
INFO: data buffer = 79691776/99614720
Dec 6, 2012 2:26:03 PM org.apache.hadoop.mapred.MapTask$MapOutputBuffer <init>
INFO: record buffer = 262144/327680
Dec 6, 2012 2:26:03 PM org.apache.hadoop.mapred.MapTask$MapOutputBuffer flush
INFO: Starting flush of map output
Dec 6, 2012 2:26:03 PM org.apache.hadoop.mapred.MapTask$MapOutputBuffer sortAndSpill
INFO: Finished spill 0
Dec 6, 2012 2:26:03 PM org.apache.hadoop.mapred.Task done
INFO: Task:attempt_local_0199_m_000000_0 is done. And is in the process of commiting
Dec 6, 2012 2:26:04 PM org.apache.hadoop.mapred.JobClient monitorAndPrintJob
INFO:  map 0% reduce 0%
Dec 6, 2012 2:26:06 PM org.apache.hadoop.mapred.LocalJobRunner$Job statusUpdate
INFO: 
Dec 6, 2012 2:26:06 PM org.apache.hadoop.mapred.Task sendDone
INFO: Task 'attempt_local_0199_m_000000_0' done.
Dec 6, 2012 2:26:06 PM org.apache.hadoop.mapred.LocalJobRunner$Job statusUpdate
INFO: 
Dec 6, 2012 2:26:06 PM org.apache.hadoop.mapred.Merger$MergeQueue merge
INFO: Merging 1 sorted segments
Dec 6, 2012 2:26:06 PM org.apache.hadoop.mapred.Merger$MergeQueue merge
INFO: Down to the last merge-pass, with 1 segments left of total size: 20 bytes
Dec 6, 2012 2:26:06 PM org.apache.hadoop.mapred.LocalJobRunner$Job statusUpdate
INFO: 
Dec 6, 2012 2:26:06 PM org.apache.hadoop.mapred.Task done
INFO: Task:attempt_local_0199_r_000000_0 is done. And is in the process of commiting
Dec 6, 2012 2:26:06 PM org.apache.hadoop.mapred.LocalJobRunner$Job statusUpdate
INFO: 
Dec 6, 2012 2:26:06 PM org.apache.hadoop.mapred.Task commit
INFO: Task attempt_local_0199_r_000000_0 is allowed to commit now
Dec 6, 2012 2:26:06 PM org.apache.hadoop.mapreduce.lib.output.FileOutputCommitter commitTask
INFO: Saved output of task 'attempt_local_0199_r_000000_0' to file:/tmp/mahout-InformationGainTest-8589671495895122944/tmp/entropy-1354832756100
Dec 6, 2012 2:26:07 PM org.apache.hadoop.mapred.JobClient monitorAndPrintJob
INFO:  map 100% reduce 0%
Dec 6, 2012 2:26:09 PM org.apache.hadoop.mapred.LocalJobRunner$Job statusUpdate
INFO: reduce > reduce
Dec 6, 2012 2:26:09 PM org.apache.hadoop.mapred.Task sendDone
INFO: Task 'attempt_local_0199_r_000000_0' done.
Dec 6, 2012 2:26:10 PM org.apache.hadoop.mapred.JobClient monitorAndPrintJob
INFO:  map 100% reduce 100%
Dec 6, 2012 2:26:10 PM org.apache.hadoop.mapred.JobClient monitorAndPrintJob
INFO: Job complete: job_local_0199
Dec 6, 2012 2:26:10 PM org.apache.hadoop.mapred.Counters log
INFO: Counters: 16
Dec 6, 2012 2:26:10 PM org.apache.hadoop.mapred.Counters log
INFO:   File Output Format Counters 
Dec 6, 2012 2:26:10 PM org.apache.hadoop.mapred.Counters log
INFO:     Bytes Written=124
Dec 6, 2012 2:26:10 PM org.apache.hadoop.mapred.Counters log
INFO:   FileSystemCounters
Dec 6, 2012 2:26:10 PM org.apache.hadoop.mapred.Counters log
INFO:     FILE_BYTES_READ=73160644
Dec 6, 2012 2:26:10 PM org.apache.hadoop.mapred.Counters log
INFO:     FILE_BYTES_WRITTEN=51158966
Dec 6, 2012 2:26:10 PM org.apache.hadoop.mapred.Counters log
INFO:   File Input Format Counters 
Dec 6, 2012 2:26:10 PM org.apache.hadoop.mapred.Counters log
INFO:     Bytes Read=127
Dec 6, 2012 2:26:10 PM org.apache.hadoop.mapred.Counters log
INFO:   Map-Reduce Framework
Dec 6, 2012 2:26:10 PM org.apache.hadoop.mapred.Counters log
INFO:     Reduce input groups=1
Dec 6, 2012 2:26:10 PM org.apache.hadoop.mapred.Counters log
INFO:     Map output materialized bytes=24
Dec 6, 2012 2:26:10 PM org.apache.hadoop.mapred.Counters log
INFO:     Combine output records=1
Dec 6, 2012 2:26:10 PM org.apache.hadoop.mapred.Counters log
INFO:     Map input records=2
Dec 6, 2012 2:26:10 PM org.apache.hadoop.mapred.Counters log
INFO:     Reduce shuffle bytes=0
Dec 6, 2012 2:26:10 PM org.apache.hadoop.mapred.Counters log
INFO:     Reduce output records=1
Dec 6, 2012 2:26:10 PM org.apache.hadoop.mapred.Counters log
INFO:     Spilled Records=2
Dec 6, 2012 2:26:10 PM org.apache.hadoop.mapred.Counters log
INFO:     Map output bytes=16
Dec 6, 2012 2:26:10 PM org.apache.hadoop.mapred.Counters log
INFO:     Combine input records=2
Dec 6, 2012 2:26:10 PM org.apache.hadoop.mapred.Counters log
INFO:     Map output records=2
Dec 6, 2012 2:26:10 PM org.apache.hadoop.mapred.Counters log
INFO:     SPLIT_RAW_BYTES=157
Dec 6, 2012 2:26:10 PM org.apache.hadoop.mapred.Counters log
INFO:     Reduce input records=1
Dec 6, 2012 2:26:10 PM org.slf4j.impl.JCLLoggerAdapter info
INFO: Command line arguments: {--endPhase=[2147483647], --input=[file:/tmp/mahout-InformationGainTest-8589671495895122944/input], --output=[file:/tmp/mahout-InformationGainTest-8589671495895122944/tmp/conditional_entropy-1354832756100], --startPhase=[0], --tempDir=[file:/tmp/mahout-InformationGainTest-8589671495895122944/tmp]}
Dec 6, 2012 2:26:10 PM org.apache.hadoop.mapred.JobClient copyAndConfigureFiles
WARNING: No job jar file set.  User classes may not be found. See JobConf(Class) or JobConf#setJar(String).
Dec 6, 2012 2:26:10 PM org.apache.hadoop.mapreduce.lib.input.FileInputFormat listStatus
INFO: Total input paths to process : 1
Dec 6, 2012 2:26:10 PM org.apache.hadoop.mapred.JobClient monitorAndPrintJob
INFO: Running job: job_local_0200
Dec 6, 2012 2:26:10 PM org.apache.hadoop.mapred.MapTask$MapOutputBuffer <init>
INFO: io.sort.mb = 100
Dec 6, 2012 2:26:10 PM org.apache.hadoop.mapred.MapTask$MapOutputBuffer <init>
INFO: data buffer = 79691776/99614720
Dec 6, 2012 2:26:10 PM org.apache.hadoop.mapred.MapTask$MapOutputBuffer <init>
INFO: record buffer = 262144/327680
Dec 6, 2012 2:26:10 PM org.apache.hadoop.mapred.MapTask$MapOutputBuffer flush
INFO: Starting flush of map output
Dec 6, 2012 2:26:10 PM org.apache.hadoop.mapred.MapTask$MapOutputBuffer sortAndSpill
INFO: Finished spill 0
Dec 6, 2012 2:26:10 PM org.apache.hadoop.mapred.Task done
INFO: Task:attempt_local_0200_m_000000_0 is done. And is in the process of commiting
Dec 6, 2012 2:26:11 PM org.apache.hadoop.mapred.JobClient monitorAndPrintJob
INFO:  map 0% reduce 0%
Dec 6, 2012 2:26:13 PM org.apache.hadoop.mapred.LocalJobRunner$Job statusUpdate
INFO: 
Dec 6, 2012 2:26:13 PM org.apache.hadoop.mapred.Task sendDone
INFO: Task 'attempt_local_0200_m_000000_0' done.
Dec 6, 2012 2:26:13 PM org.apache.hadoop.mapred.LocalJobRunner$Job statusUpdate
INFO: 
Dec 6, 2012 2:26:13 PM org.apache.hadoop.mapred.Merger$MergeQueue merge
INFO: Merging 1 sorted segments
Dec 6, 2012 2:26:13 PM org.apache.hadoop.mapred.Merger$MergeQueue merge
INFO: Down to the last merge-pass, with 1 segments left of total size: 53 bytes
Dec 6, 2012 2:26:13 PM org.apache.hadoop.mapred.LocalJobRunner$Job statusUpdate
INFO: 
Dec 6, 2012 2:26:13 PM org.apache.hadoop.mapred.Task done
INFO: Task:attempt_local_0200_r_000000_0 is done. And is in the process of commiting
Dec 6, 2012 2:26:13 PM org.apache.hadoop.mapred.LocalJobRunner$Job statusUpdate
INFO: 
Dec 6, 2012 2:26:13 PM org.apache.hadoop.mapred.Task commit
INFO: Task attempt_local_0200_r_000000_0 is allowed to commit now
Dec 6, 2012 2:26:13 PM org.apache.hadoop.mapreduce.lib.output.FileOutputCommitter commitTask
INFO: Saved output of task 'attempt_local_0200_r_000000_0' to file:/tmp/mahout-InformationGainTest-8589671495895122944/tmp/key_value_count-1354832770417
Dec 6, 2012 2:26:14 PM org.apache.hadoop.mapred.JobClient monitorAndPrintJob
INFO:  map 100% reduce 0%
Dec 6, 2012 2:26:16 PM org.apache.hadoop.mapred.LocalJobRunner$Job statusUpdate
INFO: reduce > reduce
Dec 6, 2012 2:26:16 PM org.apache.hadoop.mapred.Task sendDone
INFO: Task 'attempt_local_0200_r_000000_0' done.
Dec 6, 2012 2:26:17 PM org.apache.hadoop.mapred.JobClient monitorAndPrintJob
INFO:  map 100% reduce 100%
Dec 6, 2012 2:26:17 PM org.apache.hadoop.mapred.JobClient monitorAndPrintJob
INFO: Job complete: job_local_0200
Dec 6, 2012 2:26:17 PM org.apache.hadoop.mapred.Counters log
INFO: Counters: 16
Dec 6, 2012 2:26:17 PM org.apache.hadoop.mapred.Counters log
INFO:   File Output Format Counters 
Dec 6, 2012 2:26:17 PM org.apache.hadoop.mapred.Counters log
INFO:     Bytes Written=200
Dec 6, 2012 2:26:17 PM org.apache.hadoop.mapred.Counters log
INFO:   FileSystemCounters
Dec 6, 2012 2:26:17 PM org.apache.hadoop.mapred.Counters log
INFO:     FILE_BYTES_READ=73161785
Dec 6, 2012 2:26:17 PM org.apache.hadoop.mapred.Counters log
INFO:     FILE_BYTES_WRITTEN=51224754
Dec 6, 2012 2:26:17 PM org.apache.hadoop.mapred.Counters log
INFO:   File Input Format Counters 
Dec 6, 2012 2:26:17 PM org.apache.hadoop.mapred.Counters log
INFO:     Bytes Read=224
Dec 6, 2012 2:26:17 PM org.apache.hadoop.mapred.Counters log
INFO:   Map-Reduce Framework
Dec 6, 2012 2:26:17 PM org.apache.hadoop.mapred.Counters log
INFO:     Reduce input groups=4
Dec 6, 2012 2:26:17 PM org.apache.hadoop.mapred.Counters log
INFO:     Map output materialized bytes=57
Dec 6, 2012 2:26:17 PM org.apache.hadoop.mapred.Counters log
INFO:     Combine output records=4
Dec 6, 2012 2:26:17 PM org.apache.hadoop.mapred.Counters log
INFO:     Map input records=8
Dec 6, 2012 2:26:17 PM org.apache.hadoop.mapred.Counters log
INFO:     Reduce shuffle bytes=0
Dec 6, 2012 2:26:17 PM org.apache.hadoop.mapred.Counters log
INFO:     Reduce output records=4
Dec 6, 2012 2:26:17 PM org.apache.hadoop.mapred.Counters log
INFO:     Spilled Records=8
Dec 6, 2012 2:26:17 PM org.apache.hadoop.mapred.Counters log
INFO:     Map output bytes=110
Dec 6, 2012 2:26:17 PM org.apache.hadoop.mapred.Counters log
INFO:     Combine input records=8
Dec 6, 2012 2:26:17 PM org.apache.hadoop.mapred.Counters log
INFO:     Map output records=8
Dec 6, 2012 2:26:17 PM org.apache.hadoop.mapred.Counters log
INFO:     SPLIT_RAW_BYTES=127
Dec 6, 2012 2:26:17 PM org.apache.hadoop.mapred.Counters log
INFO:     Reduce input records=4
Dec 6, 2012 2:26:17 PM org.apache.hadoop.mapred.JobClient copyAndConfigureFiles
WARNING: No job jar file set.  User classes may not be found. See JobConf(Class) or JobConf#setJar(String).
Dec 6, 2012 2:26:17 PM org.apache.hadoop.mapreduce.lib.input.FileInputFormat listStatus
INFO: Total input paths to process : 1
Dec 6, 2012 2:26:17 PM org.apache.hadoop.mapred.JobClient monitorAndPrintJob
INFO: Running job: job_local_0201
Dec 6, 2012 2:26:17 PM org.apache.hadoop.mapred.MapTask$MapOutputBuffer <init>
INFO: io.sort.mb = 100
Dec 6, 2012 2:26:17 PM org.apache.hadoop.mapred.MapTask$MapOutputBuffer <init>
INFO: data buffer = 79691776/99614720
Dec 6, 2012 2:26:17 PM org.apache.hadoop.mapred.MapTask$MapOutputBuffer <init>
INFO: record buffer = 262144/327680
Dec 6, 2012 2:26:17 PM org.apache.hadoop.mapred.MapTask$MapOutputBuffer flush
INFO: Starting flush of map output
Dec 6, 2012 2:26:17 PM org.apache.hadoop.mapred.MapTask$MapOutputBuffer sortAndSpill
INFO: Finished spill 0
Dec 6, 2012 2:26:17 PM org.apache.hadoop.mapred.Task done
INFO: Task:attempt_local_0201_m_000000_0 is done. And is in the process of commiting
Dec 6, 2012 2:26:18 PM org.apache.hadoop.mapred.JobClient monitorAndPrintJob
INFO:  map 0% reduce 0%
Dec 6, 2012 2:26:20 PM org.apache.hadoop.mapred.LocalJobRunner$Job statusUpdate
INFO: 
Dec 6, 2012 2:26:20 PM org.apache.hadoop.mapred.Task sendDone
INFO: Task 'attempt_local_0201_m_000000_0' done.
Dec 6, 2012 2:26:20 PM org.apache.hadoop.mapred.LocalJobRunner$Job statusUpdate
INFO: 
Dec 6, 2012 2:26:20 PM org.apache.hadoop.mapred.Merger$MergeQueue merge
INFO: Merging 1 sorted segments
Dec 6, 2012 2:26:20 PM org.apache.hadoop.mapred.Merger$MergeQueue merge
INFO: Down to the last merge-pass, with 1 segments left of total size: 36 bytes
Dec 6, 2012 2:26:20 PM org.apache.hadoop.mapred.LocalJobRunner$Job statusUpdate
INFO: 
Dec 6, 2012 2:26:20 PM org.apache.hadoop.mapred.Task done
INFO: Task:attempt_local_0201_r_000000_0 is done. And is in the process of commiting
Dec 6, 2012 2:26:20 PM org.apache.hadoop.mapred.LocalJobRunner$Job statusUpdate
INFO: 
Dec 6, 2012 2:26:20 PM org.apache.hadoop.mapred.Task commit
INFO: Task attempt_local_0201_r_000000_0 is allowed to commit now
Dec 6, 2012 2:26:20 PM org.apache.hadoop.mapreduce.lib.output.FileOutputCommitter commitTask
INFO: Saved output of task 'attempt_local_0201_r_000000_0' to file:/tmp/mahout-InformationGainTest-8589671495895122944/tmp/specific_conditional_entropy_1354832770417
Dec 6, 2012 2:26:21 PM org.apache.hadoop.mapred.JobClient monitorAndPrintJob
INFO:  map 100% reduce 0%
Dec 6, 2012 2:26:23 PM org.apache.hadoop.mapred.LocalJobRunner$Job statusUpdate
INFO: reduce > reduce
Dec 6, 2012 2:26:23 PM org.apache.hadoop.mapred.Task sendDone
INFO: Task 'attempt_local_0201_r_000000_0' done.
Dec 6, 2012 2:26:24 PM org.apache.hadoop.mapred.JobClient monitorAndPrintJob
INFO:  map 100% reduce 100%
Dec 6, 2012 2:26:24 PM org.apache.hadoop.mapred.JobClient monitorAndPrintJob
INFO: Job complete: job_local_0201
Dec 6, 2012 2:26:24 PM org.apache.hadoop.mapred.Counters log
INFO: Counters: 16
Dec 6, 2012 2:26:24 PM org.apache.hadoop.mapred.Counters log
INFO:   File Output Format Counters 
Dec 6, 2012 2:26:24 PM org.apache.hadoop.mapred.Counters log
INFO:     Bytes Written=164
Dec 6, 2012 2:26:24 PM org.apache.hadoop.mapred.Counters log
INFO:   FileSystemCounters
Dec 6, 2012 2:26:24 PM org.apache.hadoop.mapred.Counters log
INFO:     FILE_BYTES_READ=73162728
Dec 6, 2012 2:26:24 PM org.apache.hadoop.mapred.Counters log
INFO:     FILE_BYTES_WRITTEN=51290514
Dec 6, 2012 2:26:24 PM org.apache.hadoop.mapred.Counters log
INFO:   File Input Format Counters 
Dec 6, 2012 2:26:24 PM org.apache.hadoop.mapred.Counters log
INFO:     Bytes Read=200
Dec 6, 2012 2:26:24 PM org.apache.hadoop.mapred.Counters log
INFO:   Map-Reduce Framework
Dec 6, 2012 2:26:24 PM org.apache.hadoop.mapred.Counters log
INFO:     Reduce input groups=3
Dec 6, 2012 2:26:24 PM org.apache.hadoop.mapred.Counters log
INFO:     Map output materialized bytes=40
Dec 6, 2012 2:26:24 PM org.apache.hadoop.mapred.Counters log
INFO:     Combine output records=0
Dec 6, 2012 2:26:24 PM org.apache.hadoop.mapred.Counters log
INFO:     Map input records=4
Dec 6, 2012 2:26:24 PM org.apache.hadoop.mapred.Counters log
INFO:     Reduce shuffle bytes=0
Dec 6, 2012 2:26:24 PM org.apache.hadoop.mapred.Counters log
INFO:     Reduce output records=3
Dec 6, 2012 2:26:24 PM org.apache.hadoop.mapred.Counters log
INFO:     Spilled Records=8
Dec 6, 2012 2:26:24 PM org.apache.hadoop.mapred.Counters log
INFO:     Map output bytes=25
Dec 6, 2012 2:26:24 PM org.apache.hadoop.mapred.Counters log
INFO:     Combine input records=0
Dec 6, 2012 2:26:24 PM org.apache.hadoop.mapred.Counters log
INFO:     Map output records=4
Dec 6, 2012 2:26:24 PM org.apache.hadoop.mapred.Counters log
INFO:     SPLIT_RAW_BYTES=168
Dec 6, 2012 2:26:24 PM org.apache.hadoop.mapred.Counters log
INFO:     Reduce input records=4
Dec 6, 2012 2:26:24 PM org.apache.hadoop.mapred.JobClient copyAndConfigureFiles
WARNING: No job jar file set.  User classes may not be found. See JobConf(Class) or JobConf#setJar(String).
Dec 6, 2012 2:26:24 PM org.apache.hadoop.mapreduce.lib.input.FileInputFormat listStatus
INFO: Total input paths to process : 1
Dec 6, 2012 2:26:24 PM org.apache.hadoop.mapred.JobClient monitorAndPrintJob
INFO: Running job: job_local_0202
Dec 6, 2012 2:26:24 PM org.apache.hadoop.mapred.MapTask$MapOutputBuffer <init>
INFO: io.sort.mb = 100
Dec 6, 2012 2:26:24 PM org.apache.hadoop.mapred.MapTask$MapOutputBuffer <init>
INFO: data buffer = 79691776/99614720
Dec 6, 2012 2:26:24 PM org.apache.hadoop.mapred.MapTask$MapOutputBuffer <init>
INFO: record buffer = 262144/327680
Dec 6, 2012 2:26:24 PM org.apache.hadoop.mapred.MapTask$MapOutputBuffer flush
INFO: Starting flush of map output
Dec 6, 2012 2:26:24 PM org.apache.hadoop.mapred.MapTask$MapOutputBuffer sortAndSpill
INFO: Finished spill 0
Dec 6, 2012 2:26:24 PM org.apache.hadoop.mapred.Task done
INFO: Task:attempt_local_0202_m_000000_0 is done. And is in the process of commiting
Dec 6, 2012 2:26:25 PM org.apache.hadoop.mapred.JobClient monitorAndPrintJob
INFO:  map 0% reduce 0%
Dec 6, 2012 2:26:27 PM org.apache.hadoop.mapred.LocalJobRunner$Job statusUpdate
INFO: 
Dec 6, 2012 2:26:27 PM org.apache.hadoop.mapred.Task sendDone
INFO: Task 'attempt_local_0202_m_000000_0' done.
Dec 6, 2012 2:26:27 PM org.apache.hadoop.mapred.LocalJobRunner$Job statusUpdate
INFO: 
Dec 6, 2012 2:26:27 PM org.apache.hadoop.mapred.Merger$MergeQueue merge
INFO: Merging 1 sorted segments
Dec 6, 2012 2:26:27 PM org.apache.hadoop.mapred.Merger$MergeQueue merge
INFO: Down to the last merge-pass, with 1 segments left of total size: 17 bytes
Dec 6, 2012 2:26:27 PM org.apache.hadoop.mapred.LocalJobRunner$Job statusUpdate
INFO: 
Dec 6, 2012 2:26:27 PM org.apache.hadoop.mapred.Task done
INFO: Task:attempt_local_0202_r_000000_0 is done. And is in the process of commiting
Dec 6, 2012 2:26:27 PM org.apache.hadoop.mapred.LocalJobRunner$Job statusUpdate
INFO: 
Dec 6, 2012 2:26:27 PM org.apache.hadoop.mapred.Task commit
INFO: Task attempt_local_0202_r_000000_0 is allowed to commit now
Dec 6, 2012 2:26:27 PM org.apache.hadoop.mapreduce.lib.output.FileOutputCommitter commitTask
INFO: Saved output of task 'attempt_local_0202_r_000000_0' to file:/tmp/mahout-InformationGainTest-8589671495895122944/tmp/conditional_entropy-1354832756100
Dec 6, 2012 2:26:28 PM org.apache.hadoop.mapred.JobClient monitorAndPrintJob
INFO:  map 100% reduce 0%
Dec 6, 2012 2:26:30 PM org.apache.hadoop.mapred.LocalJobRunner$Job statusUpdate
INFO: reduce > reduce
Dec 6, 2012 2:26:30 PM org.apache.hadoop.mapred.LocalJobRunner$Job statusUpdate
INFO: reduce > reduce
Dec 6, 2012 2:26:30 PM org.apache.hadoop.mapred.Task sendDone
INFO: Task 'attempt_local_0202_r_000000_0' done.
Dec 6, 2012 2:26:31 PM org.apache.hadoop.mapred.JobClient monitorAndPrintJob
INFO:  map 100% reduce 100%
Dec 6, 2012 2:26:31 PM org.apache.hadoop.mapred.JobClient monitorAndPrintJob
INFO: Job complete: job_local_0202
Dec 6, 2012 2:26:31 PM org.apache.hadoop.mapred.Counters log
INFO: Counters: 16
Dec 6, 2012 2:26:31 PM org.apache.hadoop.mapred.Counters log
INFO:   File Output Format Counters 
Dec 6, 2012 2:26:31 PM org.apache.hadoop.mapred.Counters log
INFO:     Bytes Written=124
Dec 6, 2012 2:26:31 PM org.apache.hadoop.mapred.Counters log
INFO:   FileSystemCounters
Dec 6, 2012 2:26:31 PM org.apache.hadoop.mapred.Counters log
INFO:     FILE_BYTES_READ=73163589
Dec 6, 2012 2:26:31 PM org.apache.hadoop.mapred.Counters log
INFO:     FILE_BYTES_WRITTEN=51356518
Dec 6, 2012 2:26:31 PM org.apache.hadoop.mapred.Counters log
INFO:   File Input Format Counters 
Dec 6, 2012 2:26:31 PM org.apache.hadoop.mapred.Counters log
INFO:     Bytes Read=164
Dec 6, 2012 2:26:31 PM org.apache.hadoop.mapred.Counters log
INFO:   Map-Reduce Framework
Dec 6, 2012 2:26:31 PM org.apache.hadoop.mapred.Counters log
INFO:     Reduce input groups=1
Dec 6, 2012 2:26:31 PM org.apache.hadoop.mapred.Counters log
INFO:     Map output materialized bytes=21
Dec 6, 2012 2:26:31 PM org.apache.hadoop.mapred.Counters log
INFO:     Combine output records=1
Dec 6, 2012 2:26:31 PM org.apache.hadoop.mapred.Counters log
INFO:     Map input records=3
Dec 6, 2012 2:26:31 PM org.apache.hadoop.mapred.Counters log
INFO:     Reduce shuffle bytes=0
Dec 6, 2012 2:26:31 PM org.apache.hadoop.mapred.Counters log
INFO:     Reduce output records=1
Dec 6, 2012 2:26:31 PM org.apache.hadoop.mapred.Counters log
INFO:     Spilled Records=2
Dec 6, 2012 2:26:31 PM org.apache.hadoop.mapred.Counters log
INFO:     Map output bytes=24
Dec 6, 2012 2:26:31 PM org.apache.hadoop.mapred.Counters log
INFO:     Combine input records=3
Dec 6, 2012 2:26:31 PM org.apache.hadoop.mapred.Counters log
INFO:     Map output records=3
Dec 6, 2012 2:26:31 PM org.apache.hadoop.mapred.Counters log
INFO:     SPLIT_RAW_BYTES=181
Dec 6, 2012 2:26:31 PM org.apache.hadoop.mapred.Counters log
INFO:     Reduce input records=1
