<?xml version="1.0" encoding="UTF-8" ?>
<testsuite failures="0" time="0.083" errors="0" skipped="0" tests="17" name="org.apache.mahout.cf.taste.impl.similarity.EuclideanDistanceSimilarityTest">
  <properties>
    <property name="java.runtime.name" value="OpenJDK Runtime Environment"/>
    <property name="sun.boot.library.path" value="/usr/lib/jvm/java-6-openjdk-i386/jre/lib/i386"/>
    <property name="java.vm.version" value="20.0-b12"/>
    <property name="java.vm.vendor" value="Sun Microsystems Inc."/>
    <property name="java.vendor.url" value="http://java.sun.com/"/>
    <property name="path.separator" value=":"/>
    <property name="java.vm.name" value="OpenJDK Client VM"/>
    <property name="file.encoding.pkg" value="sun.io"/>
    <property name="user.country" value="US"/>
    <property name="sun.java.launcher" value="SUN_STANDARD"/>
    <property name="sun.os.patch.level" value="unknown"/>
    <property name="java.vm.specification.name" value="Java Virtual Machine Specification"/>
    <property name="user.dir" value="/home/venu/workspace/mahout/core"/>
    <property name="java.runtime.version" value="1.6.0_24-b24"/>
    <property name="java.awt.graphicsenv" value="sun.awt.X11GraphicsEnvironment"/>
    <property name="basedir" value="/home/venu/workspace/mahout/core"/>
    <property name="java.endorsed.dirs" value="/usr/lib/jvm/java-6-openjdk-i386/jre/lib/endorsed"/>
    <property name="os.arch" value="i386"/>
    <property name="surefire.real.class.path" value="/home/venu/workspace/mahout/core/target/surefire/surefirebooter737931563845179883.jar"/>
    <property name="java.io.tmpdir" value="/tmp"/>
    <property name="line.separator" value="
"/>
    <property name="java.vm.specification.vendor" value="Sun Microsystems Inc."/>
    <property name="os.name" value="Linux"/>
    <property name="sun.jnu.encoding" value="UTF-8"/>
    <property name="java.library.path" value="/usr/lib/jvm/java-6-openjdk-i386/jre/lib/i386/client:/usr/lib/jvm/java-6-openjdk-i386/jre/lib/i386:/usr/lib/jvm/java-6-openjdk-i386/jre/../lib/i386:/usr/java/packages/lib/i386:/usr/lib/i386-linux-gnu/jni:/lib/i386-linux-gnu:/usr/lib/i386-linux-gnu:/usr/lib/jni:/lib:/usr/lib"/>
    <property name="surefire.test.class.path" value="/home/venu/workspace/mahout/core/target/test-classes:/home/venu/workspace/mahout/core/target/classes:/home/venu/.m2/repository/org/apache/mahout/mahout-math/0.7/mahout-math-0.7.jar:/home/venu/.m2/repository/org/uncommons/maths/uncommons-maths/1.2.2/uncommons-maths-1.2.2.jar:/home/venu/.m2/repository/jfree/jcommon/1.0.12/jcommon-1.0.12.jar:/home/venu/.m2/repository/com/google/guava/guava/r09/guava-r09.jar:/home/venu/.m2/repository/org/apache/mahout/mahout-math/0.7/mahout-math-0.7-tests.jar:/home/venu/.m2/repository/org/codehaus/jackson/jackson-core-asl/1.8.2/jackson-core-asl-1.8.2.jar:/home/venu/.m2/repository/org/codehaus/jackson/jackson-mapper-asl/1.8.2/jackson-mapper-asl-1.8.2.jar:/home/venu/.m2/repository/org/slf4j/slf4j-api/1.6.1/slf4j-api-1.6.1.jar:/home/venu/.m2/repository/org/slf4j/slf4j-jcl/1.6.1/slf4j-jcl-1.6.1.jar:/home/venu/.m2/repository/commons-logging/commons-logging/1.1.1/commons-logging-1.1.1.jar:/home/venu/.m2/repository/commons-lang/commons-lang/2.6/commons-lang-2.6.jar:/home/venu/.m2/repository/com/thoughtworks/xstream/xstream/1.3.1/xstream-1.3.1.jar:/home/venu/.m2/repository/xpp3/xpp3_min/1.1.4c/xpp3_min-1.1.4c.jar:/home/venu/.m2/repository/org/apache/lucene/lucene-core/3.6.0/lucene-core-3.6.0.jar:/home/venu/.m2/repository/org/apache/lucene/lucene-analyzers/3.6.0/lucene-analyzers-3.6.0.jar:/home/venu/.m2/repository/org/apache/mahout/commons/commons-cli/2.0-mahout/commons-cli-2.0-mahout.jar:/home/venu/.m2/repository/org/apache/commons/commons-math/2.2/commons-math-2.2.jar:/home/venu/.m2/repository/junit/junit/4.8.2/junit-4.8.2.jar:/home/venu/.m2/repository/org/easymock/easymock/3.0/easymock-3.0.jar:/home/venu/.m2/repository/cglib/cglib-nodep/2.2/cglib-nodep-2.2.jar:/home/venu/.m2/repository/org/objenesis/objenesis/1.2/objenesis-1.2.jar:/home/venu/.m2/repository/org/apache/hadoop/hadoop-core/0.20.204.0/hadoop-core-0.20.204.0.jar:/home/venu/.m2/repository/commons-cli/commons-cli/1.2/commons-cli-1.2.jar:/home/venu/.m2/repository/commons-httpclient/commons-httpclient/3.0.1/commons-httpclient-3.0.1.jar:/home/venu/.m2/repository/commons-codec/commons-codec/1.4/commons-codec-1.4.jar:/home/venu/.m2/repository/commons-configuration/commons-configuration/1.6/commons-configuration-1.6.jar:/home/venu/.m2/repository/commons-collections/commons-collections/3.2.1/commons-collections-3.2.1.jar:/home/venu/.m2/repository/commons-digester/commons-digester/1.8/commons-digester-1.8.jar:/home/venu/.m2/repository/commons-beanutils/commons-beanutils/1.7.0/commons-beanutils-1.7.0.jar:/home/venu/.m2/repository/commons-beanutils/commons-beanutils-core/1.8.0/commons-beanutils-core-1.8.0.jar:"/>
    <property name="java.specification.name" value="Java Platform API Specification"/>
    <property name="java.class.version" value="50.0"/>
    <property name="sun.management.compiler" value="HotSpot Client Compiler"/>
    <property name="os.version" value="3.2.0-32-generic-pae"/>
    <property name="user.home" value="/home/venu"/>
    <property name="user.timezone" value="America/Los_Angeles"/>
    <property name="java.awt.printerjob" value="sun.print.PSPrinterJob"/>
    <property name="file.encoding" value="UTF-8"/>
    <property name="java.specification.version" value="1.6"/>
    <property name="user.name" value="venu"/>
    <property name="java.class.path" value="/home/venu/workspace/mahout/core/target/test-classes:/home/venu/workspace/mahout/core/target/classes:/home/venu/.m2/repository/org/apache/mahout/mahout-math/0.7/mahout-math-0.7.jar:/home/venu/.m2/repository/org/uncommons/maths/uncommons-maths/1.2.2/uncommons-maths-1.2.2.jar:/home/venu/.m2/repository/jfree/jcommon/1.0.12/jcommon-1.0.12.jar:/home/venu/.m2/repository/com/google/guava/guava/r09/guava-r09.jar:/home/venu/.m2/repository/org/apache/mahout/mahout-math/0.7/mahout-math-0.7-tests.jar:/home/venu/.m2/repository/org/codehaus/jackson/jackson-core-asl/1.8.2/jackson-core-asl-1.8.2.jar:/home/venu/.m2/repository/org/codehaus/jackson/jackson-mapper-asl/1.8.2/jackson-mapper-asl-1.8.2.jar:/home/venu/.m2/repository/org/slf4j/slf4j-api/1.6.1/slf4j-api-1.6.1.jar:/home/venu/.m2/repository/org/slf4j/slf4j-jcl/1.6.1/slf4j-jcl-1.6.1.jar:/home/venu/.m2/repository/commons-logging/commons-logging/1.1.1/commons-logging-1.1.1.jar:/home/venu/.m2/repository/commons-lang/commons-lang/2.6/commons-lang-2.6.jar:/home/venu/.m2/repository/com/thoughtworks/xstream/xstream/1.3.1/xstream-1.3.1.jar:/home/venu/.m2/repository/xpp3/xpp3_min/1.1.4c/xpp3_min-1.1.4c.jar:/home/venu/.m2/repository/org/apache/lucene/lucene-core/3.6.0/lucene-core-3.6.0.jar:/home/venu/.m2/repository/org/apache/lucene/lucene-analyzers/3.6.0/lucene-analyzers-3.6.0.jar:/home/venu/.m2/repository/org/apache/mahout/commons/commons-cli/2.0-mahout/commons-cli-2.0-mahout.jar:/home/venu/.m2/repository/org/apache/commons/commons-math/2.2/commons-math-2.2.jar:/home/venu/.m2/repository/junit/junit/4.8.2/junit-4.8.2.jar:/home/venu/.m2/repository/org/easymock/easymock/3.0/easymock-3.0.jar:/home/venu/.m2/repository/cglib/cglib-nodep/2.2/cglib-nodep-2.2.jar:/home/venu/.m2/repository/org/objenesis/objenesis/1.2/objenesis-1.2.jar:/home/venu/.m2/repository/org/apache/hadoop/hadoop-core/0.20.204.0/hadoop-core-0.20.204.0.jar:/home/venu/.m2/repository/commons-cli/commons-cli/1.2/commons-cli-1.2.jar:/home/venu/.m2/repository/commons-httpclient/commons-httpclient/3.0.1/commons-httpclient-3.0.1.jar:/home/venu/.m2/repository/commons-codec/commons-codec/1.4/commons-codec-1.4.jar:/home/venu/.m2/repository/commons-configuration/commons-configuration/1.6/commons-configuration-1.6.jar:/home/venu/.m2/repository/commons-collections/commons-collections/3.2.1/commons-collections-3.2.1.jar:/home/venu/.m2/repository/commons-digester/commons-digester/1.8/commons-digester-1.8.jar:/home/venu/.m2/repository/commons-beanutils/commons-beanutils/1.7.0/commons-beanutils-1.7.0.jar:/home/venu/.m2/repository/commons-beanutils/commons-beanutils-core/1.8.0/commons-beanutils-core-1.8.0.jar:"/>
    <property name="java.vm.specification.version" value="1.0"/>
    <property name="sun.arch.data.model" value="32"/>
    <property name="java.home" value="/usr/lib/jvm/java-6-openjdk-i386/jre"/>
    <property name="sun.java.command" value="/home/venu/workspace/mahout/core/target/surefire/surefirebooter737931563845179883.jar /home/venu/workspace/mahout/core/target/surefire/surefire5471805598413945260tmp /home/venu/workspace/mahout/core/target/surefire/surefire935505495421172248tmp"/>
    <property name="java.specification.vendor" value="Sun Microsystems Inc."/>
    <property name="user.language" value="en"/>
    <property name="java.vm.info" value="mixed mode, sharing"/>
    <property name="java.version" value="1.6.0_24"/>
    <property name="java.ext.dirs" value="/usr/lib/jvm/java-6-openjdk-i386/jre/lib/ext:/usr/java/packages/lib/ext"/>
    <property name="sun.boot.class.path" value="/usr/lib/jvm/java-6-openjdk-i386/jre/lib/resources.jar:/usr/lib/jvm/java-6-openjdk-i386/jre/lib/rt.jar:/usr/lib/jvm/java-6-openjdk-i386/jre/lib/sunrsasign.jar:/usr/lib/jvm/java-6-openjdk-i386/jre/lib/jsse.jar:/usr/lib/jvm/java-6-openjdk-i386/jre/lib/jce.jar:/usr/lib/jvm/java-6-openjdk-i386/jre/lib/charsets.jar:/usr/lib/jvm/java-6-openjdk-i386/jre/lib/netx.jar:/usr/lib/jvm/java-6-openjdk-i386/jre/lib/plugin.jar:/usr/lib/jvm/java-6-openjdk-i386/jre/lib/rhino.jar:/usr/lib/jvm/java-6-openjdk-i386/jre/lib/modules/jdk.boot.jar:/usr/lib/jvm/java-6-openjdk-i386/jre/classes"/>
    <property name="java.vendor" value="Sun Microsystems Inc."/>
    <property name="localRepository" value="/home/venu/.m2/repository"/>
    <property name="file.separator" value="/"/>
    <property name="java.vendor.url.bug" value="http://java.sun.com/cgi-bin/bugreport.cgi"/>
    <property name="sun.cpu.endian" value="little"/>
    <property name="sun.io.unicode.encoding" value="UnicodeLittle"/>
    <property name="sun.desktop" value="gnome"/>
    <property name="sun.cpu.isalist" value=""/>
  </properties>
  <testcase time="0.016" classname="org.apache.mahout.cf.taste.impl.similarity.EuclideanDistanceSimilarityTest" name="testFullCorrelation1"/>
  <testcase time="0.003" classname="org.apache.mahout.cf.taste.impl.similarity.EuclideanDistanceSimilarityTest" name="testFullCorrelation2"/>
  <testcase time="0.007" classname="org.apache.mahout.cf.taste.impl.similarity.EuclideanDistanceSimilarityTest" name="testRefresh"/>
  <testcase time="0.003" classname="org.apache.mahout.cf.taste.impl.similarity.EuclideanDistanceSimilarityTest" name="testSimple"/>
  <testcase time="0.003" classname="org.apache.mahout.cf.taste.impl.similarity.EuclideanDistanceSimilarityTest" name="testFullCorrelation1Weighted"/>
  <testcase time="0.004" classname="org.apache.mahout.cf.taste.impl.similarity.EuclideanDistanceSimilarityTest" name="testNoCorrelation1"/>
  <testcase time="0.003" classname="org.apache.mahout.cf.taste.impl.similarity.EuclideanDistanceSimilarityTest" name="testNoCorrelation1Weighted"/>
  <testcase time="0.004" classname="org.apache.mahout.cf.taste.impl.similarity.EuclideanDistanceSimilarityTest" name="testNoCorrelation2"/>
  <testcase time="0.004" classname="org.apache.mahout.cf.taste.impl.similarity.EuclideanDistanceSimilarityTest" name="testNoCorrelation3"/>
  <testcase time="0.003" classname="org.apache.mahout.cf.taste.impl.similarity.EuclideanDistanceSimilarityTest" name="testSimpleWeighted"/>
  <testcase time="0.003" classname="org.apache.mahout.cf.taste.impl.similarity.EuclideanDistanceSimilarityTest" name="testFullItemCorrelation1"/>
  <testcase time="0.003" classname="org.apache.mahout.cf.taste.impl.similarity.EuclideanDistanceSimilarityTest" name="testFullItemCorrelation2"/>
  <testcase time="0.003" classname="org.apache.mahout.cf.taste.impl.similarity.EuclideanDistanceSimilarityTest" name="testNoItemCorrelation1"/>
  <testcase time="0.003" classname="org.apache.mahout.cf.taste.impl.similarity.EuclideanDistanceSimilarityTest" name="testNoItemCorrelation2"/>
  <testcase time="0.003" classname="org.apache.mahout.cf.taste.impl.similarity.EuclideanDistanceSimilarityTest" name="testNoItemCorrelation3"/>
  <testcase time="0.004" classname="org.apache.mahout.cf.taste.impl.similarity.EuclideanDistanceSimilarityTest" name="testSimpleItem"/>
  <testcase time="0.004" classname="org.apache.mahout.cf.taste.impl.similarity.EuclideanDistanceSimilarityTest" name="testSimpleItemWeighted"/>
</testsuite>