ID;OrderLineID;DeliveredOn;AcceptedBy
0;0;15-1-2010 15:35;J. van der Sluis
1;1;15-1-2010 15:35;J. van der Sluis
2;2;15-1-2010 15:35;J. van der Sluis
3;4;28-1-2010 17:54;Mr. Peterson
4;5;28-1-2010 17:54;Mr. Peterson
5;3;4-2-2010 12:24;Mr. Peterson
6;6;5-2-2010 11:03;Mr. Thomson
7;7;7-2-2010 14:07;Mrs. Thomson
8;12;11-2-2010 14:07;Mrs Fletcher
